Removed Pin From Net: NetName=NetC74_1 Pin=C74-1
Removed Pin From Net: NetName=L5N Pin=C74-2
Removed Pin From Net: NetName=L0N Pin=C77-1
Removed Pin From Net: NetName=L5N Pin=C77-2
Removed Pin From Net: NetName=L0N Pin=C83-1
Removed Pin From Net: NetName=L5N Pin=C83-2
Removed Pin From Net: NetName=L0N Pin=C88-1
Removed Pin From Net: NetName=L5N Pin=C88-2
Removed Pin From Net: NetName=A2N Pin=C124-1
Removed Pin From Net: NetName=A0N Pin=C124-2
Removed Pin From Net: NetName=A2P Pin=C127-1
Removed Pin From Net: NetName=A0P Pin=C127-2
Removed Pin From Net: NetName=A5N Pin=C130-1
Removed Pin From Net: NetName=A0N Pin=C130-2
Removed Pin From Net: NetName=D5N Pin=C133-1
Removed Pin From Net: NetName=D0N Pin=C133-2
Removed Pin From Net: NetName=A5P Pin=C136-1
Removed Pin From Net: NetName=A0P Pin=C136-2
Removed Pin From Net: NetName=D5P Pin=C139-1
Removed Pin From Net: NetName=D0P Pin=C139-2
Removed Pin From Net: NetName=L5N Pin=C142-1
Removed Pin From Net: NetName=L0N Pin=C142-2
Removed Pin From Net: NetName=L5P Pin=C145-1
Removed Pin From Net: NetName=L0P Pin=C145-2
Removed Pin From Net: NetName=NetRTerm4_1 Pin=U6-1
Removed Pin From Net: NetName=NetRTerm3_1 Pin=U6-2
Removed Pin From Net: NetName=NetRTerm5_2 Pin=U6-3
Removed Pin From Net: NetName=NetRTerm6_2 Pin=U6-4
Removed Pin From Net: NetName=F0 Pin=U6-5
Removed Pin From Net: NetName=NetU1_U_LVDStoTTL?6_2 Pin=U6-6
Removed Pin From Net: NetName=NetU1_U_LVDStoTTL?5_2 Pin=U6-7
Removed Pin From Net: NetName=F5 Pin=U6-8
Removed Member From Class: ClassName=U_Recti_7N Member=C98
Added Component: Designator=C74(1608[0603])
Added Component: Designator=C77(RAD-0.3)
Added Component: Designator=C83(RAD-0.3)
Added Component: Designator=C88(RAD-0.3)
Added Component: Designator=C124(RB7.6-15)
Added Component: Designator=C127(RB7.6-15)
Added Component: Designator=C133(RB7.6-15)
Added Component: Designator=C136(RB7.6-15)
Added Component: Designator=C139(RB7.6-15)
Added Component: Designator=C142(RB7.6-15)
Added Component: Designator=C145(RB7.6-15)
Added Component: Designator=U6(751-05_N)
Added Pin To Net: NetName=NetC74_1 Pin=C74-1
Added Pin To Net: NetName=L5N Pin=C74-2
Added Pin To Net: NetName=L0N Pin=C77-1
Added Pin To Net: NetName=L5N Pin=C77-2
Added Pin To Net: NetName=L0N Pin=C83-1
Added Pin To Net: NetName=L5N Pin=C83-2
Added Pin To Net: NetName=L0N Pin=C88-1
Added Pin To Net: NetName=L5N Pin=C88-2
Added Pin To Net: NetName=A2N Pin=C124-1
Added Pin To Net: NetName=A0N Pin=C124-2
Added Pin To Net: NetName=A2P Pin=C127-1
Added Pin To Net: NetName=A0P Pin=C127-2
Added Pin To Net: NetName=D5N Pin=C133-1
Added Pin To Net: NetName=D0N Pin=C133-2
Added Pin To Net: NetName=A5P Pin=C136-1
Added Pin To Net: NetName=A0P Pin=C136-2
Added Pin To Net: NetName=D5P Pin=C139-1
Added Pin To Net: NetName=D0P Pin=C139-2
Added Pin To Net: NetName=L5N Pin=C142-1
Added Pin To Net: NetName=L0N Pin=C142-2
Added Pin To Net: NetName=L5P Pin=C145-1
Added Pin To Net: NetName=L0P Pin=C145-2
Added Pin To Net: NetName=NetRTerm4_1 Pin=U6-1
Added Pin To Net: NetName=NetRTerm3_1 Pin=U6-2
Added Pin To Net: NetName=NetRTerm5_2 Pin=U6-3
Added Pin To Net: NetName=NetRTerm6_2 Pin=U6-4
Added Pin To Net: NetName=F0 Pin=U6-5
Added Pin To Net: NetName=NetU1_U_LVDStoTTL?6_2 Pin=U6-6
Added Pin To Net: NetName=NetU1_U_LVDStoTTL?5_2 Pin=U6-7
Added Pin To Net: NetName=F5 Pin=U6-8
Added Member To Class: ClassName=U_AToMDataN Member=Component C74 Cap Semi
Added Member To Class: ClassName=U_AToMDataN Member=Component C77 Cap
Added Member To Class: ClassName=U_AToMDataN Member=Component C83 Cap
Added Member To Class: ClassName=U_AToMDataN Member=Component C88 Cap
Added Member To Class: ClassName=U_AToMDataN Member=Component U6 MC100ELT23D
