Removed Pin From Net: NetName=NetC74_1 Pin=C74-1
Removed Pin From Net: NetName=L5N Pin=C74-2
Removed Pin From Net: NetName=L0N Pin=C77-1
Removed Pin From Net: NetName=L5N Pin=C77-2
Removed Pin From Net: NetName=L0N Pin=C83-1
Removed Pin From Net: NetName=L5N Pin=C83-2
Removed Pin From Net: NetName=L0N Pin=C88-1
Removed Pin From Net: NetName=L5N Pin=C88-2
Removed Pin From Net: NetName=NetC121_1 Pin=C121-1
Removed Pin From Net: NetName=NetC121_2 Pin=C121-2
Removed Pin From Net: NetName=L5P Pin=C122-1
Removed Pin From Net: NetName=NetC122_2 Pin=C122-2
Removed Pin From Net: NetName=NetC123_1 Pin=C123-1
Removed Pin From Net: NetName=NetC123_2 Pin=C123-2
Removed Pin From Net: NetName=A2N Pin=C124-1
Removed Pin From Net: NetName=A0N Pin=C124-2
Removed Pin From Net: NetName=A2P Pin=C127-1
Removed Pin From Net: NetName=A0P Pin=C127-2
Removed Pin From Net: NetName=A5N Pin=C130-1
Removed Pin From Net: NetName=A0N5 Pin=C130-2
Removed Pin From Net: NetName=D5N Pin=C133-1
Removed Pin From Net: NetName=D0N Pin=C133-2
Removed Pin From Net: NetName=A5P Pin=C136-1
Removed Pin From Net: NetName=A0P5 Pin=C136-2
Removed Pin From Net: NetName=D5P Pin=C139-1
Removed Pin From Net: NetName=D0P Pin=C139-2
Removed Pin From Net: NetName=L5N Pin=C142-1
Removed Pin From Net: NetName=L0N Pin=C142-2
Removed Pin From Net: NetName=L5P Pin=C145-1
Removed Pin From Net: NetName=L0P Pin=C145-2
Removed Pin From Net: NetName=NetRTerm4_1 Pin=U6-1
Removed Pin From Net: NetName=NetRTerm3_1 Pin=U6-2
Removed Pin From Net: NetName=NetRTerm5_2 Pin=U6-3
Removed Pin From Net: NetName=NetRTerm6_2 Pin=U6-4
Removed Pin From Net: NetName=F0 Pin=U6-5
Removed Pin From Net: NetName=NetU1_U_LVDStoTTL?6_2 Pin=U6-6
Removed Pin From Net: NetName=NetU1_U_LVDStoTTL?5_2 Pin=U6-7
Removed Pin From Net: NetName=F5 Pin=U6-8
Removed Member From Class: ClassName=U_Recti_5N Member=C93
Removed Member From Class: ClassName=U_Recti_5N Member=C94
Removed Member From Class: ClassName=U_Recti_5P Member=C96
Removed Member From Class: ClassName=U_Recti_5P Member=C97
Removed Member From Class: ClassName=U_Recti_7N Member=C99
Removed Member From Class: ClassName=U_Recti_7N Member=C100
Removed Member From Class: ClassName=U_Recti_7ND Member=C102
Removed Member From Class: ClassName=U_Recti_7ND Member=C103
Removed Member From Class: ClassName=U_Recti_7P Member=C105
Removed Member From Class: ClassName=U_Recti_7P Member=C106
Removed Member From Class: ClassName=U_Recti_7PD Member=C108
Removed Member From Class: ClassName=U_Recti_7PD Member=C109
Removed Member From Class: ClassName=U_Recti_LN Member=C111
Removed Member From Class: ClassName=U_Recti_LN Member=C112
Change Component DesignItemId : Designator=C125 Old DesignItemId=Cap New DesignItemId=Cap Semi
Change Component DesignItemId : Designator=C126 Old DesignItemId=Cap New DesignItemId=Cap Semi
Change Component DesignItemId : Designator=C128 Old DesignItemId=Cap New DesignItemId=Cap Semi
Change Component DesignItemId : Designator=C129 Old DesignItemId=Cap New DesignItemId=Cap Semi
Change Component DesignItemId : Designator=C131 Old DesignItemId=Cap New DesignItemId=Cap Semi
Change Component DesignItemId : Designator=C132 Old DesignItemId=Cap New DesignItemId=Cap Semi
Change Component DesignItemId : Designator=C134 Old DesignItemId=Cap New DesignItemId=Cap Semi
Change Component DesignItemId : Designator=C135 Old DesignItemId=Cap New DesignItemId=Cap Semi
Change Component DesignItemId : Designator=C137 Old DesignItemId=Cap New DesignItemId=Cap Semi
Change Component DesignItemId : Designator=C138 Old DesignItemId=Cap New DesignItemId=Cap Semi
Change Component DesignItemId : Designator=C140 Old DesignItemId=Cap New DesignItemId=Cap Semi
Change Component DesignItemId : Designator=C141 Old DesignItemId=Cap New DesignItemId=Cap Semi
Change Component DesignItemId : Designator=C143 Old DesignItemId=Cap New DesignItemId=Cap Semi
Change Component DesignItemId : Designator=C144 Old DesignItemId=Cap New DesignItemId=Cap Semi
Change Component DesignItemId : Designator=C146 Old DesignItemId=Cap New DesignItemId=Cap Semi
Change Component DesignItemId : Designator=C147 Old DesignItemId=Cap New DesignItemId=Cap Semi
Change Component Footprint: Designator=C125 Old Footprint=RAD-0.3 New Footprint=1608[0603]
Change Component Footprint: Designator=C126 Old Footprint=RAD-0.3 New Footprint=1608[0603]
Change Component Footprint: Designator=C128 Old Footprint=RAD-0.3 New Footprint=1608[0603]
Change Component Footprint: Designator=C129 Old Footprint=RAD-0.3 New Footprint=1608[0603]
Change Component Footprint: Designator=C131 Old Footprint=RAD-0.3 New Footprint=1608[0603]
Change Component Footprint: Designator=C132 Old Footprint=RAD-0.3 New Footprint=1608[0603]
Change Component Footprint: Designator=C134 Old Footprint=RAD-0.3 New Footprint=1608[0603]
Change Component Footprint: Designator=C135 Old Footprint=RAD-0.3 New Footprint=1608[0603]
Change Component Footprint: Designator=C137 Old Footprint=RAD-0.3 New Footprint=1608[0603]
Change Component Footprint: Designator=C138 Old Footprint=RAD-0.3 New Footprint=1608[0603]
Change Component Footprint: Designator=C140 Old Footprint=RAD-0.3 New Footprint=1608[0603]
Change Component Footprint: Designator=C141 Old Footprint=RAD-0.3 New Footprint=1608[0603]
Change Component Footprint: Designator=C143 Old Footprint=RAD-0.3 New Footprint=1608[0603]
Change Component Footprint: Designator=C144 Old Footprint=RAD-0.3 New Footprint=1608[0603]
Change Component Footprint: Designator=C146 Old Footprint=RAD-0.3 New Footprint=1608[0603]
Change Component Footprint: Designator=C147 Old Footprint=RAD-0.3 New Footprint=1608[0603]
Change Component Comment : Designator=C125 Old Comment=Cap New Comment=Cap Semi
Change Component Comment : Designator=C126 Old Comment=Cap New Comment=Cap Semi
Change Component Comment : Designator=C128 Old Comment=Cap New Comment=Cap Semi
Change Component Comment : Designator=C129 Old Comment=Cap New Comment=Cap Semi
Change Component Comment : Designator=C131 Old Comment=Cap New Comment=Cap Semi
Change Component Comment : Designator=C132 Old Comment=Cap New Comment=Cap Semi
Change Component Comment : Designator=C134 Old Comment=Cap New Comment=Cap Semi
Change Component Comment : Designator=C135 Old Comment=Cap New Comment=Cap Semi
Change Component Comment : Designator=C137 Old Comment=Cap New Comment=Cap Semi
Change Component Comment : Designator=C138 Old Comment=Cap New Comment=Cap Semi
Change Component Comment : Designator=C140 Old Comment=Cap New Comment=Cap Semi
Change Component Comment : Designator=C141 Old Comment=Cap New Comment=Cap Semi
Change Component Comment : Designator=C143 Old Comment=Cap New Comment=Cap Semi
Change Component Comment : Designator=C144 Old Comment=Cap New Comment=Cap Semi
Change Component Comment : Designator=C146 Old Comment=Cap New Comment=Cap Semi
Change Component Comment : Designator=C147 Old Comment=Cap New Comment=Cap Semi
Added Component: Designator=C74(1608[0603])
Added Component: Designator=C77(RAD-0.3)
Added Component: Designator=C83(RAD-0.3)
Added Component: Designator=C88(RAD-0.3)
Added Component: Designator=C121(RAD-0.3)
Added Component: Designator=C122(RAD-0.3)
Added Component: Designator=C123(RAD-0.3)
Added Component: Designator=C124(RB7.6-15)
Added Component: Designator=C127(RB7.6-15)
Added Component: Designator=C130(RB7.6-15)
Added Component: Designator=C133(RB7.6-15)
Added Component: Designator=C136(RB7.6-15)
Added Component: Designator=C139(RB7.6-15)
Added Component: Designator=C142(RB7.6-15)
Added Component: Designator=C145(RB7.6-15)
Added Component: Designator=U6(751-05_N)
Added Pin To Net: NetName=NetC74_1 Pin=C74-1
Added Pin To Net: NetName=L5N Pin=C74-2
Added Pin To Net: NetName=L0N Pin=C77-1
Added Pin To Net: NetName=L5N Pin=C77-2
Added Pin To Net: NetName=L0N Pin=C83-1
Added Pin To Net: NetName=L5N Pin=C83-2
Added Pin To Net: NetName=L0N Pin=C88-1
Added Pin To Net: NetName=L5N Pin=C88-2
Added Pin To Net: NetName=NetC121_1 Pin=C121-1
Added Pin To Net: NetName=NetC121_2 Pin=C121-2
Added Pin To Net: NetName=L5P Pin=C122-1
Added Pin To Net: NetName=NetC122_2 Pin=C122-2
Added Pin To Net: NetName=NetC123_1 Pin=C123-1
Added Pin To Net: NetName=NetC123_2 Pin=C123-2
Added Pin To Net: NetName=A2N Pin=C124-1
Added Pin To Net: NetName=A0N Pin=C124-2
Added Pin To Net: NetName=A2P Pin=C127-1
Added Pin To Net: NetName=A0P Pin=C127-2
Added Pin To Net: NetName=A5N Pin=C130-1
Added Pin To Net: NetName=A0N5 Pin=C130-2
Added Pin To Net: NetName=D5N Pin=C133-1
Added Pin To Net: NetName=D0N Pin=C133-2
Added Pin To Net: NetName=A5P Pin=C136-1
Added Pin To Net: NetName=A0P5 Pin=C136-2
Added Pin To Net: NetName=D5P Pin=C139-1
Added Pin To Net: NetName=D0P Pin=C139-2
Added Pin To Net: NetName=L5N Pin=C142-1
Added Pin To Net: NetName=L0N Pin=C142-2
Added Pin To Net: NetName=L5P Pin=C145-1
Added Pin To Net: NetName=L0P Pin=C145-2
Added Pin To Net: NetName=NetRTerm4_1 Pin=U6-1
Added Pin To Net: NetName=NetRTerm3_1 Pin=U6-2
Added Pin To Net: NetName=NetRTerm5_2 Pin=U6-3
Added Pin To Net: NetName=NetRTerm6_2 Pin=U6-4
Added Pin To Net: NetName=F0 Pin=U6-5
Added Pin To Net: NetName=NetU1_U_LVDStoTTL?6_2 Pin=U6-6
Added Pin To Net: NetName=NetU1_U_LVDStoTTL?5_2 Pin=U6-7
Added Pin To Net: NetName=F5 Pin=U6-8
Added Member To Class: ClassName=U_AToMDataN Member=Component C74 Cap Semi
Added Member To Class: ClassName=U_AToMDataN Member=Component C77 Cap
Added Member To Class: ClassName=U_AToMDataN Member=Component C83 Cap
Added Member To Class: ClassName=U_AToMDataN Member=Component C88 Cap
Added Member To Class: ClassName=U_Recti_5N Member=Component C125 Cap Semi
Added Member To Class: ClassName=U_Recti_5N Member=Component C126 Cap Semi
Added Member To Class: ClassName=U_Recti_5P Member=Component C128 Cap Semi
Added Member To Class: ClassName=U_Recti_5P Member=Component C129 Cap Semi
Added Member To Class: ClassName=U_Recti_7N Member=Component C131 Cap Semi
Added Member To Class: ClassName=U_Recti_7N Member=Component C132 Cap Semi
Added Member To Class: ClassName=U_Recti_7ND Member=Component C134 Cap Semi
Added Member To Class: ClassName=U_Recti_7ND Member=Component C135 Cap Semi
Added Member To Class: ClassName=U_Recti_7P Member=Component C137 Cap Semi
Added Member To Class: ClassName=U_Recti_7P Member=Component C138 Cap Semi
Added Member To Class: ClassName=U_Recti_7PD Member=Component C140 Cap Semi
Added Member To Class: ClassName=U_Recti_7PD Member=Component C141 Cap Semi
Added Member To Class: ClassName=U_Recti_LN Member=Component C143 Cap Semi
Added Member To Class: ClassName=U_Recti_LN Member=Component C144 Cap Semi
Added Member To Class: ClassName=U_AToMDataN Member=Component U6 MC100ELT23D
