Removed Pin From Net: NetName=NetC74_1 Pin=C74-1
Removed Pin From Net: NetName=L5N Pin=C74-2
Removed Pin From Net: NetName=L0N Pin=C77-1
Removed Pin From Net: NetName=L5N Pin=C77-2
Removed Pin From Net: NetName=L0N Pin=C83-1
Removed Pin From Net: NetName=L5N Pin=C83-2
Removed Pin From Net: NetName=L0N Pin=C88-1
Removed Pin From Net: NetName=L5N Pin=C88-2
Removed Pin From Net: NetName=L5P Pin=C122-1
Removed Pin From Net: NetName=NetC122_2 Pin=C122-2
Removed Pin From Net: NetName=A2N Pin=C124-1
Removed Pin From Net: NetName=A0N Pin=C124-2
Removed Pin From Net: NetName=A2P Pin=C127-1
Removed Pin From Net: NetName=A0P Pin=C127-2
Removed Pin From Net: NetName=A5N Pin=C130-1
Removed Pin From Net: NetName=D5N Pin=C133-1
Removed Pin From Net: NetName=D0N Pin=C133-2
Removed Pin From Net: NetName=A5P Pin=C136-1
Removed Pin From Net: NetName=D5P Pin=C139-1
Removed Pin From Net: NetName=D0P Pin=C139-2
Removed Pin From Net: NetName=L5N Pin=C142-1
Removed Pin From Net: NetName=L0N Pin=C142-2
Removed Pin From Net: NetName=L5P Pin=C145-1
Removed Pin From Net: NetName=L0P Pin=C145-2
Removed Pin From Net: NetName=A0P Pin=R14-2
Removed Pin From Net: NetName=A0N Pin=R15-2
Removed Pin From Net: NetName=NetRTerm4_1 Pin=U6-1
Removed Pin From Net: NetName=NetRTerm3_1 Pin=U6-2
Removed Pin From Net: NetName=NetRTerm5_2 Pin=U6-3
Removed Pin From Net: NetName=NetRTerm6_2 Pin=U6-4
Removed Pin From Net: NetName=F0 Pin=U6-5
Removed Pin From Net: NetName=NetU1_U_LVDStoTTL?6_2 Pin=U6-6
Removed Pin From Net: NetName=NetU1_U_LVDStoTTL?5_2 Pin=U6-7
Removed Pin From Net: NetName=F5 Pin=U6-8
Removed Member From Class: ClassName=U_Matching Member=R14
Removed Member From Class: ClassName=U_Matching Member=R15
Added Component: Designator=C74(1608[0603])
Added Component: Designator=C77(RAD-0.3)
Added Component: Designator=C83(RAD-0.3)
Added Component: Designator=C88(RAD-0.3)
Added Component: Designator=C122(RAD-0.3)
Added Component: Designator=C124(RB7.6-15)
Added Component: Designator=C127(RB7.6-15)
Added Component: Designator=C130(RB7.6-15)
Added Component: Designator=C133(RB7.6-15)
Added Component: Designator=C136(RB7.6-15)
Added Component: Designator=C139(RB7.6-15)
Added Component: Designator=C142(RB7.6-15)
Added Component: Designator=C145(RB7.6-15)
Added Component: Designator=U6(751-05_N)
Added Pin To Net: NetName=A2N Pin=C1-1
Added Pin To Net: NetName=A2N Pin=C2-1
Added Pin To Net: NetName=A2N Pin=C3-1
Added Pin To Net: NetName=A2N Pin=C4-1
Added Pin To Net: NetName=A2N Pin=C5-1
Added Pin To Net: NetName=A2P Pin=C6-2
Added Pin To Net: NetName=A2P Pin=C7-2
Added Pin To Net: NetName=A2P Pin=C8-2
Added Pin To Net: NetName=A2P Pin=C9-2
Added Pin To Net: NetName=A2P Pin=C10-2
Added Pin To Net: NetName=NetC74_1 Pin=C74-1
Added Pin To Net: NetName=L5N Pin=C74-2
Added Pin To Net: NetName=L0N Pin=C77-1
Added Pin To Net: NetName=L5N Pin=C77-2
Added Pin To Net: NetName=L0N Pin=C83-1
Added Pin To Net: NetName=L5N Pin=C83-2
Added Pin To Net: NetName=L0N Pin=C88-1
Added Pin To Net: NetName=L5N Pin=C88-2
Added Pin To Net: NetName=L5P Pin=C122-1
Added Pin To Net: NetName=NetC122_2 Pin=C122-2
Added Pin To Net: NetName=A2N Pin=C124-1
Added Pin To Net: NetName=A0N Pin=C124-2
Added Pin To Net: NetName=A2P Pin=C127-1
Added Pin To Net: NetName=A0P Pin=C127-2
Added Pin To Net: NetName=A5N Pin=C130-1
Added Pin To Net: NetName=A0N Pin=C130-2
Added Pin To Net: NetName=A0N Pin=C131-1
Added Pin To Net: NetName=A0N Pin=C132-1
Added Pin To Net: NetName=D5N Pin=C133-1
Added Pin To Net: NetName=D0N Pin=C133-2
Added Pin To Net: NetName=A5P Pin=C136-1
Added Pin To Net: NetName=A0P Pin=C136-2
Added Pin To Net: NetName=A0P Pin=C137-1
Added Pin To Net: NetName=A0P Pin=C138-1
Added Pin To Net: NetName=D5P Pin=C139-1
Added Pin To Net: NetName=D0P Pin=C139-2
Added Pin To Net: NetName=L5N Pin=C142-1
Added Pin To Net: NetName=L0N Pin=C142-2
Added Pin To Net: NetName=L5P Pin=C145-1
Added Pin To Net: NetName=L0P Pin=C145-2
Added Pin To Net: NetName=A0N Pin=GR3-1
Added Pin To Net: NetName=A0P Pin=GR5-1
Added Pin To Net: NetName=A0N Pin=P2-23
Added Pin To Net: NetName=A0P Pin=P2-29
Added Pin To Net: NetName=A0P Pin=R16-1
Added Pin To Net: NetName=A0N Pin=R17-1
Added Pin To Net: NetName=A0P Pin=R49-1
Added Pin To Net: NetName=A0N Pin=R185-1
Added Pin To Net: NetName=A0N Pin=R186-1
Added Pin To Net: NetName=A0P Pin=R191-1
Added Pin To Net: NetName=A0P Pin=R192-1
Added Pin To Net: NetName=A0P Pin=U2-2
Added Pin To Net: NetName=A0N Pin=U3-2
Added Pin To Net: NetName=NetRTerm4_1 Pin=U6-1
Added Pin To Net: NetName=NetRTerm3_1 Pin=U6-2
Added Pin To Net: NetName=NetRTerm5_2 Pin=U6-3
Added Pin To Net: NetName=NetRTerm6_2 Pin=U6-4
Added Pin To Net: NetName=F0 Pin=U6-5
Added Pin To Net: NetName=NetU1_U_LVDStoTTL?6_2 Pin=U6-6
Added Pin To Net: NetName=NetU1_U_LVDStoTTL?5_2 Pin=U6-7
Added Pin To Net: NetName=F5 Pin=U6-8
Added Pin To Net: NetName=A0N Pin=U32-5
Added Pin To Net: NetName=A0N Pin=U32-7
Added Pin To Net: NetName=A0P Pin=U34-5
Added Pin To Net: NetName=A0P Pin=U34-7
Added Member To Class: ClassName=U_Matching Member=Component C33 Cap Semi
Added Member To Class: ClassName=U_AToMDataN Member=Component C74 Cap Semi
Added Member To Class: ClassName=U_AToMDataN Member=Component C77 Cap
Added Member To Class: ClassName=U_AToMDataN Member=Component C83 Cap
Added Member To Class: ClassName=U_AToMDataN Member=Component C88 Cap
Added Member To Class: ClassName=U_AToMDataN Member=Component U6 MC100ELT23D
