Removed Pin From Net: NetName=NetC74_1 Pin=C74-1
Removed Pin From Net: NetName=L5N Pin=C74-2
Removed Pin From Net: NetName=L0N Pin=C77-1
Removed Pin From Net: NetName=L5N Pin=C77-2
Removed Pin From Net: NetName=L0N Pin=C83-1
Removed Pin From Net: NetName=L5N Pin=C83-2
Removed Pin From Net: NetName=L0N Pin=C88-1
Removed Pin From Net: NetName=L5N Pin=C88-2
Removed Pin From Net: NetName=NetRTerm4_1 Pin=U6-1
Removed Pin From Net: NetName=NetRTerm3_1 Pin=U6-2
Removed Pin From Net: NetName=NetRTerm5_2 Pin=U6-3
Removed Pin From Net: NetName=NetRTerm6_2 Pin=U6-4
Removed Pin From Net: NetName=F0 Pin=U6-5
Removed Pin From Net: NetName=NetU1_U_LVDStoTTL?6_2 Pin=U6-6
Removed Pin From Net: NetName=NetU1_U_LVDStoTTL?5_2 Pin=U6-7
Removed Pin From Net: NetName=F5 Pin=U6-8
Added Component: Designator=C74(1608[0603])
Added Component: Designator=C77(1608[0603])
Added Component: Designator=C83(1608[0603])
Added Component: Designator=C88(1608[0603])
Added Component: Designator=U6(751-05_N)
Added Pin To Net: NetName=NetC74_1 Pin=C74-1
Added Pin To Net: NetName=L5N Pin=C74-2
Added Pin To Net: NetName=L0N Pin=C77-1
Added Pin To Net: NetName=L5N Pin=C77-2
Added Pin To Net: NetName=L0N Pin=C83-1
Added Pin To Net: NetName=L5N Pin=C83-2
Added Pin To Net: NetName=L0N Pin=C88-1
Added Pin To Net: NetName=L5N Pin=C88-2
Added Pin To Net: NetName=NetRTerm4_1 Pin=U6-1
Added Pin To Net: NetName=NetRTerm3_1 Pin=U6-2
Added Pin To Net: NetName=NetRTerm5_2 Pin=U6-3
Added Pin To Net: NetName=NetRTerm6_2 Pin=U6-4
Added Pin To Net: NetName=F0 Pin=U6-5
Added Pin To Net: NetName=NetU1_U_LVDStoTTL?6_2 Pin=U6-6
Added Pin To Net: NetName=NetU1_U_LVDStoTTL?5_2 Pin=U6-7
Added Pin To Net: NetName=F5 Pin=U6-8
Added Member To Class: ClassName=U_AToMDataN Member=Component C74 Cap Semi
Added Member To Class: ClassName=U_AToMDataN Member=Component C77 Cap
Added Member To Class: ClassName=U_AToMDataN Member=Component C83 Cap
Added Member To Class: ClassName=U_AToMDataN Member=Component C88 Cap
Added Member To Class: ClassName=U_AToMDataN Member=Component U6 MC100ELT23D
