Removed Pin From Net: NetName=NetC74_1 Pin=C74-1
Removed Pin From Net: NetName=L5N Pin=C74-2
Removed Pin From Net: NetName=L0N Pin=C77-1
Removed Pin From Net: NetName=L5N Pin=C77-2
Removed Pin From Net: NetName=L0N Pin=C83-1
Removed Pin From Net: NetName=L5N Pin=C83-2
Removed Pin From Net: NetName=L0N Pin=C88-1
Removed Pin From Net: NetName=L5N Pin=C88-2
Removed Pin From Net: NetName=NetC121_1 Pin=C121-1
Removed Pin From Net: NetName=NetC121_2 Pin=C121-2
Removed Pin From Net: NetName=L5P Pin=C122-1
Removed Pin From Net: NetName=NetC122_2 Pin=C122-2
Removed Pin From Net: NetName=NetC123_1 Pin=C123-1
Removed Pin From Net: NetName=NetC123_2 Pin=C123-2
Removed Pin From Net: NetName=A2N Pin=C124-1
Removed Pin From Net: NetName=A0N Pin=C124-2
Removed Pin From Net: NetName=A0N Pin=C125-1
Removed Pin From Net: NetName=A2N Pin=C125-2
Removed Pin From Net: NetName=A0N Pin=C126-1
Removed Pin From Net: NetName=NetC126_2 Pin=C126-2
Removed Pin From Net: NetName=A2P Pin=C127-1
Removed Pin From Net: NetName=A0P Pin=C127-2
Removed Pin From Net: NetName=A0P Pin=C128-1
Removed Pin From Net: NetName=A2P Pin=C128-2
Removed Pin From Net: NetName=A0P Pin=C129-1
Removed Pin From Net: NetName=NetC129_2 Pin=C129-2
Removed Pin From Net: NetName=A5N Pin=C130-1
Removed Pin From Net: NetName=A0N5 Pin=C130-2
Removed Pin From Net: NetName=A0N5 Pin=C131-1
Removed Pin From Net: NetName=A5N Pin=C131-2
Removed Pin From Net: NetName=A0N5 Pin=C132-1
Removed Pin From Net: NetName=NetC132_2 Pin=C132-2
Removed Pin From Net: NetName=D5N Pin=C133-1
Removed Pin From Net: NetName=D0N Pin=C133-2
Removed Pin From Net: NetName=D0N Pin=C134-1
Removed Pin From Net: NetName=D5N Pin=C134-2
Removed Pin From Net: NetName=D0N Pin=C135-1
Removed Pin From Net: NetName=NetC135_2 Pin=C135-2
Removed Pin From Net: NetName=A5P Pin=C136-1
Removed Pin From Net: NetName=A0P5 Pin=C136-2
Removed Pin From Net: NetName=A0P5 Pin=C137-1
Removed Pin From Net: NetName=A5P Pin=C137-2
Removed Pin From Net: NetName=A0P5 Pin=C138-1
Removed Pin From Net: NetName=NetC138_2 Pin=C138-2
Removed Pin From Net: NetName=D5P Pin=C139-1
Removed Pin From Net: NetName=D0P Pin=C139-2
Removed Pin From Net: NetName=D0P Pin=C140-1
Removed Pin From Net: NetName=D5P Pin=C140-2
Removed Pin From Net: NetName=D0P Pin=C141-1
Removed Pin From Net: NetName=NetC141_2 Pin=C141-2
Removed Pin From Net: NetName=L5N Pin=C142-1
Removed Pin From Net: NetName=L0N Pin=C142-2
Removed Pin From Net: NetName=L0N Pin=C143-1
Removed Pin From Net: NetName=L5N Pin=C143-2
Removed Pin From Net: NetName=L0N Pin=C144-1
Removed Pin From Net: NetName=NetC144_2 Pin=C144-2
Removed Pin From Net: NetName=L5P Pin=C145-1
Removed Pin From Net: NetName=L0P Pin=C145-2
Removed Pin From Net: NetName=NetRTerm4_1 Pin=U6-1
Removed Pin From Net: NetName=NetRTerm3_1 Pin=U6-2
Removed Pin From Net: NetName=NetRTerm5_2 Pin=U6-3
Removed Pin From Net: NetName=NetRTerm6_2 Pin=U6-4
Removed Pin From Net: NetName=F0 Pin=U6-5
Removed Pin From Net: NetName=NetU1_U_LVDStoTTL?6_2 Pin=U6-6
Removed Pin From Net: NetName=NetU1_U_LVDStoTTL?5_2 Pin=U6-7
Removed Pin From Net: NetName=F5 Pin=U6-8
Change Component Footprint: Designator=C105 Old Footprint=RAD-0.3 New Footprint=1608[0603]
Change Component Footprint: Designator=C106 Old Footprint=RAD-0.3 New Footprint=1608[0603]
Change Component Footprint: Designator=C108 Old Footprint=RAD-0.3 New Footprint=1608[0603]
Change Component Footprint: Designator=C107 Old Footprint=RB7.6-15 New Footprint=1608[0603]
Added Component: Designator=C74(C1206)
Added Component: Designator=C77(RAD-0.3)
Added Component: Designator=C83(RAD-0.3)
Added Component: Designator=C88(RAD-0.3)
Added Component: Designator=C121(RAD-0.3)
Added Component: Designator=C122(RAD-0.3)
Added Component: Designator=C123(RAD-0.3)
Added Component: Designator=C124(RB7.6-15)
Added Component: Designator=C125(RAD-0.3)
Added Component: Designator=C126(RAD-0.3)
Added Component: Designator=C127(RB7.6-15)
Added Component: Designator=C128(RAD-0.3)
Added Component: Designator=C129(RAD-0.3)
Added Component: Designator=C130(RB7.6-15)
Added Component: Designator=C131(RAD-0.3)
Added Component: Designator=C132(RAD-0.3)
Added Component: Designator=C133(RB7.6-15)
Added Component: Designator=C134(RAD-0.3)
Added Component: Designator=C135(RAD-0.3)
Added Component: Designator=C136(RB7.6-15)
Added Component: Designator=C137(RAD-0.3)
Added Component: Designator=C138(RAD-0.3)
Added Component: Designator=C139(RB7.6-15)
Added Component: Designator=C140(RAD-0.3)
Added Component: Designator=C141(RAD-0.3)
Added Component: Designator=C142(RB7.6-15)
Added Component: Designator=C143(RAD-0.3)
Added Component: Designator=C144(RAD-0.3)
Added Component: Designator=C145(RB7.6-15)
Added Component: Designator=U6(751-05_N)
Added Pin To Net: NetName=NetC74_1 Pin=C74-1
Added Pin To Net: NetName=L5N Pin=C74-2
Added Pin To Net: NetName=L0N Pin=C77-1
Added Pin To Net: NetName=L5N Pin=C77-2
Added Pin To Net: NetName=L0N Pin=C83-1
Added Pin To Net: NetName=L5N Pin=C83-2
Added Pin To Net: NetName=L0N Pin=C88-1
Added Pin To Net: NetName=L5N Pin=C88-2
Added Pin To Net: NetName=NetC121_1 Pin=C121-1
Added Pin To Net: NetName=NetC121_2 Pin=C121-2
Added Pin To Net: NetName=L5P Pin=C122-1
Added Pin To Net: NetName=NetC122_2 Pin=C122-2
Added Pin To Net: NetName=NetC123_1 Pin=C123-1
Added Pin To Net: NetName=NetC123_2 Pin=C123-2
Added Pin To Net: NetName=A2N Pin=C124-1
Added Pin To Net: NetName=A0N Pin=C124-2
Added Pin To Net: NetName=A0N Pin=C125-1
Added Pin To Net: NetName=A2N Pin=C125-2
Added Pin To Net: NetName=A0N Pin=C126-1
Added Pin To Net: NetName=NetC126_2 Pin=C126-2
Added Pin To Net: NetName=A2P Pin=C127-1
Added Pin To Net: NetName=A0P Pin=C127-2
Added Pin To Net: NetName=A0P Pin=C128-1
Added Pin To Net: NetName=A2P Pin=C128-2
Added Pin To Net: NetName=A0P Pin=C129-1
Added Pin To Net: NetName=NetC129_2 Pin=C129-2
Added Pin To Net: NetName=A5N Pin=C130-1
Added Pin To Net: NetName=A0N5 Pin=C130-2
Added Pin To Net: NetName=A0N5 Pin=C131-1
Added Pin To Net: NetName=A5N Pin=C131-2
Added Pin To Net: NetName=A0N5 Pin=C132-1
Added Pin To Net: NetName=NetC132_2 Pin=C132-2
Added Pin To Net: NetName=D5N Pin=C133-1
Added Pin To Net: NetName=D0N Pin=C133-2
Added Pin To Net: NetName=D0N Pin=C134-1
Added Pin To Net: NetName=D5N Pin=C134-2
Added Pin To Net: NetName=D0N Pin=C135-1
Added Pin To Net: NetName=NetC135_2 Pin=C135-2
Added Pin To Net: NetName=A5P Pin=C136-1
Added Pin To Net: NetName=A0P5 Pin=C136-2
Added Pin To Net: NetName=A0P5 Pin=C137-1
Added Pin To Net: NetName=A5P Pin=C137-2
Added Pin To Net: NetName=A0P5 Pin=C138-1
Added Pin To Net: NetName=NetC138_2 Pin=C138-2
Added Pin To Net: NetName=D5P Pin=C139-1
Added Pin To Net: NetName=D0P Pin=C139-2
Added Pin To Net: NetName=D0P Pin=C140-1
Added Pin To Net: NetName=D5P Pin=C140-2
Added Pin To Net: NetName=D0P Pin=C141-1
Added Pin To Net: NetName=NetC141_2 Pin=C141-2
Added Pin To Net: NetName=L5N Pin=C142-1
Added Pin To Net: NetName=L0N Pin=C142-2
Added Pin To Net: NetName=L0N Pin=C143-1
Added Pin To Net: NetName=L5N Pin=C143-2
Added Pin To Net: NetName=L0N Pin=C144-1
Added Pin To Net: NetName=NetC144_2 Pin=C144-2
Added Pin To Net: NetName=L5P Pin=C145-1
Added Pin To Net: NetName=L0P Pin=C145-2
Added Pin To Net: NetName=NetRTerm4_1 Pin=U6-1
Added Pin To Net: NetName=NetRTerm3_1 Pin=U6-2
Added Pin To Net: NetName=NetRTerm5_2 Pin=U6-3
Added Pin To Net: NetName=NetRTerm6_2 Pin=U6-4
Added Pin To Net: NetName=F0 Pin=U6-5
Added Pin To Net: NetName=NetU1_U_LVDStoTTL?6_2 Pin=U6-6
Added Pin To Net: NetName=NetU1_U_LVDStoTTL?5_2 Pin=U6-7
Added Pin To Net: NetName=F5 Pin=U6-8
Added Member To Class: ClassName=U_AToMDataN Member=Component C74 Cap Semi
Added Member To Class: ClassName=U_AToMDataN Member=Component C77 Cap
Added Member To Class: ClassName=U_AToMDataN Member=Component C83 Cap
Added Member To Class: ClassName=U_AToMDataN Member=Component C88 Cap
Added Member To Class: ClassName=U_AToMDataN Member=Component U6 MC100ELT23D
