Change Component Designator: Old Designator=C77 New Designator=C67
Change Component Designator: Old Designator=C78 New Designator=C68
Change Component Designator: Old Designator=C79 New Designator=C69
Change Component Designator: Old Designator=C80 New Designator=C70
Change Component Designator: Old Designator=C81 New Designator=C71
Change Component Designator: Old Designator=R90 New Designator=R41
Change Component Designator: Old Designator=R91 New Designator=R45
Change Component Designator: Old Designator=R92 New Designator=R43
Change Component Designator: Old Designator=R93 New Designator=R42
Change Component Designator: Old Designator=R94 New Designator=R44
Change Component Designator: Old Designator=R95 New Designator=R48
Change Component Designator: Old Designator=R96 New Designator=R46
Change Component Designator: Old Designator=R97 New Designator=R49
Change Component Designator: Old Designator=R98 New Designator=R51
Change Component Designator: Old Designator=R99 New Designator=R47
Change Component Designator: Old Designator=R100 New Designator=R50
Change Component Designator: Old Designator=R101 New Designator=R52
Change Component Designator: Old Designator=R102 New Designator=R54
Change Component Designator: Old Designator=R103 New Designator=R53
Change Component Designator: Old Designator=R104 New Designator=R55
Change Component Designator: Old Designator=R105 New Designator=R56
Change Component Designator: Old Designator=R106 New Designator=R58
Change Component Designator: Old Designator=R107 New Designator=R57
Change Component Designator: Old Designator=R108 New Designator=R59
Change Component Designator: Old Designator=R109 New Designator=R60
Change Component Designator: Old Designator=R110 New Designator=R61
Change Component Designator: Old Designator=R111 New Designator=R62
Change Component Designator: Old Designator=R112 New Designator=R63
Change Component Designator: Old Designator=R113 New Designator=R64
Change Component Designator: Old Designator=R114 New Designator=R76
Change Component Designator: Old Designator=R115 New Designator=R77
Change Component Designator: Old Designator=R116 New Designator=R65
Change Component Designator: Old Designator=R117 New Designator=R66
Change Component Designator: Old Designator=R118 New Designator=R67
Change Component Designator: Old Designator=R119 New Designator=R68
Change Component Designator: Old Designator=R120 New Designator=R69
Change Component Designator: Old Designator=R121 New Designator=R70
Change Component Designator: Old Designator=R122 New Designator=R71
Change Component Designator: Old Designator=R123 New Designator=R78
Change Component Designator: Old Designator=R124 New Designator=R79
Change Component Designator: Old Designator=R125 New Designator=R72
Change Component Designator: Old Designator=R126 New Designator=R73
Change Component Designator: Old Designator=R127 New Designator=R74
Change Component Designator: Old Designator=R128 New Designator=R75
