Change Component Designator: Old Designator=C104 New Designator=C136
Change Component Designator: Old Designator=C105 New Designator=C137
Change Component Designator: Old Designator=C106 New Designator=C138
Change Component Designator: Old Designator=U32 New Designator=U34
