Added Component: Designator=U16(751B-03_N)
Added Component: Designator=U17(PA8)
Added Component: Designator=U20(751A-03_N)
Added Component: Designator=U22(751B-03_N)
Added Component: Designator=U23(PA8)
Added Component: Designator=U26(751A-03_N)
Added Pin To Net: NetName=NetC89_2 Pin=U16-1
Added Pin To Net: NetName=NetU16_3 Pin=U16-3
Added Pin To Net: NetName=NetC89_2 Pin=U16-4
Added Pin To Net: NetName=NetC89_2 Pin=U16-5
Added Pin To Net: NetName=NetR98_2 Pin=U16-6
Added Pin To Net: NetName=L0N Pin=U16-8
Added Pin To Net: NetName=NetU16_9 Pin=U16-9
Added Pin To Net: NetName=L0N Pin=U16-12
Added Pin To Net: NetName=L0N Pin=U16-13
Added Pin To Net: NetName=L5N Pin=U16-16
Added Pin To Net: NetName=L5N Pin=U17-1
Added Pin To Net: NetName=NetU16_9 Pin=U17-3
Added Pin To Net: NetName=L0N Pin=U17-4
Added Pin To Net: NetName=NetU16_9 Pin=U17-5
Added Pin To Net: NetName=NetC89_1 Pin=U17-6
Added Pin To Net: NetName=NetC88_2 Pin=U17-7
Added Pin To Net: NetName=NetU16_3 Pin=U20-1
Added Pin To Net: NetName=NetU19_5 Pin=U20-2
Added Pin To Net: NetName=NetQ9_U_CableDriverBlockN1_1 Pin=U20-3
Added Pin To Net: NetName=NetU14_U_CableDriverBlockN1_5 Pin=U20-4
Added Pin To Net: NetName=NetQ9_U_CableDriverBlockN1_1 Pin=U20-5
Added Pin To Net: NetName=NetQ9_U_CableDriverBlockN1_1 Pin=U20-6
Added Pin To Net: NetName=L0N Pin=U20-7
Added Pin To Net: NetName=NetU16_3 Pin=U20-8
Added Pin To Net: NetName=NetU20_9 Pin=U20-9
Added Pin To Net: NetName=NetQ10_U_CableDriverBlockN1_1 Pin=U20-10
Added Pin To Net: NetName=NetU14_U_CableDriverBlockN1_14 Pin=U20-11
Added Pin To Net: NetName=NetQ10_U_CableDriverBlockN1_1 Pin=U20-12
Added Pin To Net: NetName=NetQ10_U_CableDriverBlockN1_1 Pin=U20-13
Added Pin To Net: NetName=L5N Pin=U20-14
Added Pin To Net: NetName=NetC91_2 Pin=U22-1
Added Pin To Net: NetName=NetU22_3 Pin=U22-3
Added Pin To Net: NetName=NetC91_2 Pin=U22-4
Added Pin To Net: NetName=NetC91_2 Pin=U22-5
Added Pin To Net: NetName=NetR124_2 Pin=U22-6
Added Pin To Net: NetName=L0P Pin=U22-8
Added Pin To Net: NetName=NetU22_9 Pin=U22-9
Added Pin To Net: NetName=L0P Pin=U22-12
Added Pin To Net: NetName=L0P Pin=U22-13
Added Pin To Net: NetName=L5P Pin=U22-16
Added Pin To Net: NetName=L5P Pin=U23-1
Added Pin To Net: NetName=NetU22_9 Pin=U23-3
Added Pin To Net: NetName=L0P Pin=U23-4
Added Pin To Net: NetName=NetU22_9 Pin=U23-5
Added Pin To Net: NetName=NetC91_1 Pin=U23-6
Added Pin To Net: NetName=NetC90_2 Pin=U23-7
Added Pin To Net: NetName=NetU22_3 Pin=U26-1
Added Pin To Net: NetName=NetU25_5 Pin=U26-2
Added Pin To Net: NetName=NetQ14_U_CableDriverBlockP1_1 Pin=U26-3
Added Pin To Net: NetName=NetU15_U_CableDriverBlockP1_5 Pin=U26-4
Added Pin To Net: NetName=NetQ14_U_CableDriverBlockP1_1 Pin=U26-5
Added Pin To Net: NetName=NetQ14_U_CableDriverBlockP1_1 Pin=U26-6
Added Pin To Net: NetName=L0P Pin=U26-7
Added Pin To Net: NetName=NetU22_3 Pin=U26-8
Added Pin To Net: NetName=NetU26_9 Pin=U26-9
Added Pin To Net: NetName=NetQ15_U_CableDriverBlockP1_1 Pin=U26-10
Added Pin To Net: NetName=NetU15_U_CableDriverBlockP1_14 Pin=U26-11
Added Pin To Net: NetName=NetQ15_U_CableDriverBlockP1_1 Pin=U26-12
Added Pin To Net: NetName=NetQ15_U_CableDriverBlockP1_1 Pin=U26-13
Added Pin To Net: NetName=L5P Pin=U26-14
Added Member To Class: ClassName=U_CLKCMDEnableN Member=Component U16 MC14175BD
Added Member To Class: ClassName=U_CLKCMDEnableN Member=Component U17 ICM7242IPA
Added Member To Class: ClassName=U_CLKCMDEnableN Member=Component U20 MC14001BD
Added Member To Class: ClassName=U_CLKCMDEnableP Member=Component U22 MC14175BD
Added Member To Class: ClassName=U_CLKCMDEnableP Member=Component U23 ICM7242IPA
Added Member To Class: ClassName=U_CLKCMDEnableP Member=Component U26 MC14001BD
