Replace Part U41 74OL6000 in \\psf\Home\Desktop\CustomTelescopio\SignalOptoP.SchDoc with 74OL6000 from MyLibrary.SchLib
Replace Part U42 74OL6000 in \\psf\Home\Desktop\CustomTelescopio\SignalOptoP.SchDoc with 74OL6000 from MyLibrary.SchLib
Replace Part U43 74OL6000 in \\psf\Home\Desktop\CustomTelescopio\SignalOptoP.SchDoc with 74OL6000 from MyLibrary.SchLib
Replace Part U44 74OL6000 in \\psf\Home\Desktop\CustomTelescopio\SignalOptoP.SchDoc with 74OL6000 from MyLibrary.SchLib
Replace Part U45 74OL6000 in \\psf\Home\Desktop\CustomTelescopio\SignalOptoP.SchDoc with 74OL6000 from MyLibrary.SchLib
