Comment,Designator,Footprint,LibRef,Quantity,Value

"74OL6000","U38, U39","SOP6","74OL6000","2",""
"74OL6001","U21, U23, U27, U29","","74OL6001","4",""
"BAV99W","D1, D2, D3, D4, D5_U_CableDriverBlockN1, D5_U_CableDriverBlockN2, D6_U_CableDriverBlockN1, D6_U_CableDriverBlockN2, D7_U_CableDriverBlockN1, D7_U_CableDriverBlockN2, D8_U_CableDriverBlockN1, D8_U_CableDriverBlockN2, D9_U_CableDriverBlockP1, D9_U_CableDriverBlockP2, D10_U_CableDriverBlockP1, D10_U_CableDriverBlockP2, D11_U_CableDriverBlockP1, D11_U_CableDriverBlockP2, D12_U_CableDriverBlockP1, D12_U_CableDriverBlockP2, D13, D14","SOT-323","BAV99W","22",""
"BERG30","U2, U3","BERG30-MEAS","BERG30","2",""
"DS90LV019TMX","U1, U1_U_LVDStoTTL?1, U1_U_LVDStoTTL?2, U1_U_LVDStoTTL?3, U1_U_LVDStoTTLBitMask1, U1_U_LVDStoTTLBitMask2, U1_U_LVDStoTTLBitMask3, U1_U_LVDStoTTLBitMask4","M14A_N","DS90LV019TMX","8",""
"DSub50","P2","DSub50","DSub50","1",""
"ElCap","C124, C127, C130, C133, C136, C139, C142, C145","C2312","ElCap","8",""
"Gate Rectifier","GR1, GR2, GR3, GR4, GR5, GR6, GR7, GR8","TO-220-AB","Gate Rectifier","8",""
"Header 2","P4, P6, P7","HDR1X2","Header 2H","3",""
"Header 20X2H","P1","HDR2X20","Header 20X2H","1",""
"Header 4","P3, P5","HDR1X4","Header 4","2",""
"ICM7242IPA","U19, U25","PA8","ICM7242IPA","2",""
"MAX8211CSA","U20, U26","NSO8_N","MAX8211CSA","2",""
"MAX9174","UTRIG","MAX9174","MAX9174","1",""
"MC100ELT23D","U12","751-05_L","MC100ELT23D","1",""
"MC100ELT23D","U6","751-05_N","MC100ELT23D","1",""
"MC10114FN","U4, U5, U7, U9, U10, U11, U13, U15","775-02_L","MC10114FN","8",""
"MC10131FN","U16_U_CableDriverBlockN1, U16_U_CableDriverBlockN2, U17_U_CableDriverBlockP1, U17_U_CableDriverBlockP2","775-02_M","MC10131FN","4",""
"MC10ELT22D","U8, U14","751-05_L","MC10ELT22D","2",""
"MC14001BD","U22, U28","751A-03_N","MC14001BD","2",""
"MC14175BD","U18, U24","751B-03_N","MC14175BD","2",""
"MC3423D","U30, U31, U32, U33, U34, U35, U36, U37","751-02_N","MC3423D","8",""
"PMBT3904D","Q1, Q2, Q3, Q4","SOT457_N","PMBT3904D","4",""
"QNPN","Q5_U_CableDriverBlockN1, Q5_U_CableDriverBlockN2, Q6_U_CableDriverBlockN1, Q6_U_CableDriverBlockN2, Q7_U_CableDriverBlockN1, Q7_U_CableDriverBlockN2, Q8_U_CableDriverBlockN1, Q8_U_CableDriverBlockN2, Q11_U_CableDriverBlockP1, Q11_U_CableDriverBlockP2, Q12_U_CableDriverBlockP1, Q12_U_CableDriverBlockP2, Q13_U_CableDriverBlockP1, Q13_U_CableDriverBlockP2, Q14_U_CableDriverBlockP1, Q14_U_CableDriverBlockP2","SOT-23B_N","QNPN","16",""
"Res3","R1, R2, R18, R19, R42, R44, R47, R50, R53, R55, R57, R59, R68, R69, R74, R75, R76, R77, R78, R79","J1-0603","Res3","20","0"
"ZVN4206G","Q10_U_CableDriverBlockN1, Q10_U_CableDriverBlockN2, Q15_U_CableDriverBlockP1, Q15_U_CableDriverBlockP2, Q16_U_CableDriverBlockP1, Q16_U_CableDriverBlockP2","SOT223","ZVN4206G","6",""
"ZVN4206GV","Q9_U_CableDriverBlockN1, Q9_U_CableDriverBlockN2","SOT223","ZVN4206GV","2",""
"Cap","C77, C83, C88, C98, C104","1608[0603]","Cap","5","0.1uF"
"Res3","R3, R4, R5, R8, R13, R60, R63, R64, R66","J1-0603","Res3","9","1K"
"Res3","R186, R189, R192, R195, R198, R201","J1-0603","Res3","6","1K78"
"Cap Semi","C13, C18","C1206","Cap Semi","2","1u"
"Res3","R178, R181, R196, R199","J1-0603","Res3","4","2K37"
"Res3","R180, R183","J1-0603","Res3","2","2K55"
"Res3","R184, R187, R190, R193","J1-0603","Res3","4","3K"
"Res3","R94, R97, R120, R123","J1-0603","Res3","4","4K3"
"Cap Semi","C12, C17, C20, C21, C22, C23, C24, C25, C26, C27, C28, C29, C30, C31, C32, C33, C34, C35, C36, C37, C38, C39, C40, C44, C45, C46, C47, C48, C49, C50, C51, C52, C53, C54, C55, C56, C57, C60, C61, C62, C63, C64, C65, C66","C1206","Cap Semi","44","4.7u"
"Res3","R6, R7, R11, R12, R16, R17, R22, R23, R27, R28, R170, R171, R172, R175, R176, R177","J1-0603","Res3","16","10k"
"Res3","R179, R182, R185, R188, R191, R194, R197, R200","J1-0603","Res3","8","10M"
"Inductor","L1, L2","2029","Inductor","2","10mH"
"Res3","R168, R173","J1-0603","Res3","2","20k"
"Res3","R169, R174","J1-0603","Res3","2","24k3"
"Res3","R133_U_CableDriverBlockN1, R133_U_CableDriverBlockN2, R134_U_CableDriverBlockN1, R134_U_CableDriverBlockN2, R135_U_CableDriverBlockN1, R135_U_CableDriverBlockN2, R136_U_CableDriverBlockN1, R136_U_CableDriverBlockN2, R151_U_CableDriverBlockP1, R151_U_CableDriverBlockP2, R152_U_CableDriverBlockP1, R152_U_CableDriverBlockP2, R153_U_CableDriverBlockP1, R153_U_CableDriverBlockP2, R154_U_CableDriverBlockP1, R154_U_CableDriverBlockP2","J1-0603","Res3","16","36.5"
"Res3","R84, R85, R92, R93, R110, R111, R118, R119, R132_U_CableDriverBlockN1, R132_U_CableDriverBlockN2, R137_U_CableDriverBlockN1, R137_U_CableDriverBlockN2, R138_U_CableDriverBlockN1, R138_U_CableDriverBlockN2, R139_U_CableDriverBlockN1, R139_U_CableDriverBlockN2, R140_U_CableDriverBlockN1, R140_U_CableDriverBlockN2, R141_U_CableDriverBlockN1, R141_U_CableDriverBlockN2, R150_U_CableDriverBlockP1, R150_U_CableDriverBlockP2, R155_U_CableDriverBlockP1, R155_U_CableDriverBlockP2, R156_U_CableDriverBlockP1, R156_U_CableDriverBlockP2, R157_U_CableDriverBlockP1, R157_U_CableDriverBlockP2, R158_U_CableDriverBlockP1, R158_U_CableDriverBlockP2, R159_U_CableDriverBlockP1, R159_U_CableDriverBlockP2","J1-0603","Res3","32","50"
"Res3","R142_U_CableDriverBlockN1, R142_U_CableDriverBlockN2, R144_U_CableDriverBlockN1, R144_U_CableDriverBlockN2, R160_U_CableDriverBlockP1, R160_U_CableDriverBlockP2, R162_U_CableDriverBlockP1, R162_U_CableDriverBlockP2","J1-0603","Res3","8","53.6"
"Res3","R9, R10, R14, R15, R20, R21, R24, R25, R26, RTerm1, RTerm1_U_LVDStoTTL?1, RTerm1_U_LVDStoTTL?2, RTerm1_U_LVDStoTTL?3, RTerm2_U_LVDStoTTL?1, RTerm2_U_LVDStoTTL?2, RTerm2_U_LVDStoTTL?3, RTerm2_U_LVDStoTTLBitMask1, RTerm2_U_LVDStoTTLBitMask2, RTerm2_U_LVDStoTTLBitMask3, RTerm2_U_LVDStoTTLBitMask4, RTerm3, RTerm4, RTerm5, RTerm6, RTerm7, RTerm8, RTerm9, RTerm10, RTerm11, RTerm12, RTerm13, RTerm14, RTerm15, RTerm16, RTerm17, RTerm18","J1-0603","Res3","36","100"
"Cap Semi","C1, C2, C3, C4, C5, C6, C7, C8, C9, C10","C1206","Cap Semi","10","100n"
"Cap Semi","C11, C14, C15, C16, C19, C41, C42, C43, C58, C59, C67, C68, C69, C70, C71, C114_U_CableDriverBlockN1, C114_U_CableDriverBlockN2, C115_U_CableDriverBlockN1, C115_U_CableDriverBlockN2, C116_U_CableDriverBlockN1, C116_U_CableDriverBlockN2, C117_U_CableDriverBlockP1, C117_U_CableDriverBlockP2, C118_U_CableDriverBlockP1, C118_U_CableDriverBlockP2, C119_U_CableDriverBlockP1, C119_U_CableDriverBlockP2","C1206","Cap Semi","27","100nF"
"Cap Semi","C74, C80, C95, C101, C120, C121, C122, C123, C125, C126, C128, C129, C131, C132, C134, C135, C137, C138, C140, C141, C143, C144, C146, C147","1608[0603]","Cap Semi","24","100nF"
"Cap Semi","C109","1608[0603]","Cap Semi","1","100pF"
"Cap Semi","C72, C73, C75, C76, C78, C79, C81, C82, C84, C85, C86, C87, C89, C90, C91, C92, C93, C94, C96, C97, C99, C100, C102, C103, C105, C106, C107, C108, C110, C111, C112, C113","1608[0603]","Cap Semi","32","180pF"
"Res3","R143_U_CableDriverBlockN1, R143_U_CableDriverBlockN2, R145_U_CableDriverBlockN1, R145_U_CableDriverBlockN2, R161_U_CableDriverBlockP1, R161_U_CableDriverBlockP2, R163_U_CableDriverBlockP1, R163_U_CableDriverBlockP2","J1-0603","Res3","8","330"
"Res3","R80, R81, R82, R83, R86, R87, R88, R89, R90, R91, R95, R96, R98, R99, R100, R101, R102, R103, R104, R105, R106, R107, R108, R109, R112, R113, R114, R115, R116, R117, R121, R122, R124, R125, R126, R127, R128, R129, R130, R131, R146_U_CableDriverBlockN1, R146_U_CableDriverBlockN2, R147_U_CableDriverBlockN1, R147_U_CableDriverBlockN2, R148_U_CableDriverBlockN1, R148_U_CableDriverBlockN2, R149_U_CableDriverBlockN1, R149_U_CableDriverBlockN2, R164_U_CableDriverBlockP1, R164_U_CableDriverBlockP2, R165_U_CableDriverBlockP1, R165_U_CableDriverBlockP2, R166_U_CableDriverBlockP1, R166_U_CableDriverBlockP2, R167_U_CableDriverBlockP1, R167_U_CableDriverBlockP2","J1-0603","Res3","56","500"
"Res3","R29, R30, R31, R32, R33, R34, R35, R36, R37, R38, R39, R40","J1-0603","Res3","12","560"
