/*
WARNING: Do NOT edit the input and output ports in this file in a text
editor if you plan to continue editing the block that represents it in
the Block Editor! File corruption is VERY likely to occur.
*/
/*
Copyright (C) 1991-2011 Altera Corporation
Your use of Altera Corporation's design tools, logic functions 
and other software and tools, and its AMPP partner logic 
functions, and any output files from any of the foregoing 
(including device programming or simulation files), and any 
associated documentation or information are expressly subject 
to the terms and conditions of the Altera Program License 
Subscription Agreement, Altera MegaCore Function License 
Agreement, or other applicable license agreement, including, 
without limitation, that your use is for the sole purpose of 
programming logic devices manufactured by Altera and sold by 
Altera or its authorized distributors.  Please refer to the 
applicable agreement for further details.
*/
(header "graphic" (version "1.4"))
(pin
	(input)
	(rect 72 192 240 208)
	(text "INPUT" (rect 125 0 153 10)(font "Arial" (font_size 6)))
	(text "incmd[4..0]" (rect 5 0 61 12)(font "Arial" ))
	(pt 168 8)
	(drawing
		(line (pt 84 12)(pt 109 12))
		(line (pt 84 4)(pt 109 4))
		(line (pt 113 8)(pt 168 8))
		(line (pt 84 12)(pt 84 4))
		(line (pt 109 4)(pt 113 8))
		(line (pt 109 12)(pt 113 8))
	)
	(text "VCC" (rect 128 7 148 17)(font "Arial" (font_size 6)))
)
(pin
	(input)
	(rect 72 240 240 256)
	(text "INPUT" (rect 125 0 153 10)(font "Arial" (font_size 6)))
	(text "clk" (rect 5 0 20 12)(font "Arial" ))
	(pt 168 8)
	(drawing
		(line (pt 84 12)(pt 109 12))
		(line (pt 84 4)(pt 109 4))
		(line (pt 113 8)(pt 168 8))
		(line (pt 84 12)(pt 84 4))
		(line (pt 109 4)(pt 113 8))
		(line (pt 109 12)(pt 113 8))
	)
	(text "VCC" (rect 128 7 148 17)(font "Arial" (font_size 6)))
)
(pin
	(output)
	(rect 1064 192 1240 208)
	(text "OUTPUT" (rect 1 0 39 10)(font "Arial" (font_size 6)))
	(text "outcmd[4..0]" (rect 90 0 152 12)(font "Arial" ))
	(pt 0 8)
	(drawing
		(line (pt 0 8)(pt 52 8))
		(line (pt 52 4)(pt 78 4))
		(line (pt 52 12)(pt 78 12))
		(line (pt 52 12)(pt 52 4))
		(line (pt 78 4)(pt 82 8))
		(line (pt 82 8)(pt 78 12))
		(line (pt 78 12)(pt 82 8))
	)
)
(symbol
	(rect 456 120 520 200)
	(text "DFF" (rect 1 0 19 10)(font "Arial" (font_size 6)))
	(text "inst" (rect 3 68 20 80)(font "Arial" ))
	(port
		(pt 32 80)
		(input)
		(text "CLRN" (rect 21 59 44 71)(font "Courier New" (bold)))
		(text "CLRN" (rect 21 58 44 70)(font "Courier New" (bold)))
		(line (pt 32 80)(pt 32 76))
	)
	(port
		(pt 0 40)
		(input)
		(text "CLK" (rect 3 29 20 41)(font "Courier New" (bold))(invisible))
		(text "CLK" (rect 3 29 20 41)(font "Courier New" (bold))(invisible))
		(line (pt 0 40)(pt 12 40))
	)
	(port
		(pt 0 24)
		(input)
		(text "D" (rect 14 20 19 32)(font "Courier New" (bold)))
		(text "D" (rect 14 20 19 32)(font "Courier New" (bold)))
		(line (pt 0 24)(pt 12 24))
	)
	(port
		(pt 32 0)
		(input)
		(text "PRN" (rect 24 13 41 25)(font "Courier New" (bold)))
		(text "PRN" (rect 24 11 41 23)(font "Courier New" (bold)))
		(line (pt 32 4)(pt 32 0))
	)
	(port
		(pt 64 24)
		(output)
		(text "Q" (rect 45 20 50 32)(font "Courier New" (bold)))
		(text "Q" (rect 45 20 50 32)(font "Courier New" (bold)))
		(line (pt 52 24)(pt 64 24))
	)
	(drawing
		(line (pt 12 12)(pt 52 12))
		(line (pt 12 68)(pt 52 68))
		(line (pt 52 68)(pt 52 12))
		(line (pt 12 68)(pt 12 12))
		(line (pt 19 40)(pt 12 47))
		(line (pt 12 32)(pt 20 40))
		(circle (rect 28 4 36 12))
		(circle (rect 28 68 36 76))
	)
)
(symbol
	(rect 456 232 520 312)
	(text "DFF" (rect 1 0 19 10)(font "Arial" (font_size 6)))
	(text "inst1" (rect 3 68 26 80)(font "Arial" ))
	(port
		(pt 32 80)
		(input)
		(text "CLRN" (rect 21 59 44 71)(font "Courier New" (bold)))
		(text "CLRN" (rect 21 58 44 70)(font "Courier New" (bold)))
		(line (pt 32 80)(pt 32 76))
	)
	(port
		(pt 0 40)
		(input)
		(text "CLK" (rect 3 29 20 41)(font "Courier New" (bold))(invisible))
		(text "CLK" (rect 3 29 20 41)(font "Courier New" (bold))(invisible))
		(line (pt 0 40)(pt 12 40))
	)
	(port
		(pt 0 24)
		(input)
		(text "D" (rect 14 20 19 32)(font "Courier New" (bold)))
		(text "D" (rect 14 20 19 32)(font "Courier New" (bold)))
		(line (pt 0 24)(pt 12 24))
	)
	(port
		(pt 32 0)
		(input)
		(text "PRN" (rect 24 13 41 25)(font "Courier New" (bold)))
		(text "PRN" (rect 24 11 41 23)(font "Courier New" (bold)))
		(line (pt 32 4)(pt 32 0))
	)
	(port
		(pt 64 24)
		(output)
		(text "Q" (rect 45 20 50 32)(font "Courier New" (bold)))
		(text "Q" (rect 45 20 50 32)(font "Courier New" (bold)))
		(line (pt 52 24)(pt 64 24))
	)
	(drawing
		(line (pt 12 12)(pt 52 12))
		(line (pt 12 68)(pt 52 68))
		(line (pt 52 68)(pt 52 12))
		(line (pt 12 68)(pt 12 12))
		(line (pt 19 40)(pt 12 47))
		(line (pt 12 32)(pt 20 40))
		(circle (rect 28 4 36 12))
		(circle (rect 28 68 36 76))
	)
)
(symbol
	(rect 456 456 520 536)
	(text "DFF" (rect 1 0 19 10)(font "Arial" (font_size 6)))
	(text "inst2" (rect 3 68 26 80)(font "Arial" ))
	(port
		(pt 32 80)
		(input)
		(text "CLRN" (rect 21 59 44 71)(font "Courier New" (bold)))
		(text "CLRN" (rect 21 58 44 70)(font "Courier New" (bold)))
		(line (pt 32 80)(pt 32 76))
	)
	(port
		(pt 0 40)
		(input)
		(text "CLK" (rect 3 29 20 41)(font "Courier New" (bold))(invisible))
		(text "CLK" (rect 3 29 20 41)(font "Courier New" (bold))(invisible))
		(line (pt 0 40)(pt 12 40))
	)
	(port
		(pt 0 24)
		(input)
		(text "D" (rect 14 20 19 32)(font "Courier New" (bold)))
		(text "D" (rect 14 20 19 32)(font "Courier New" (bold)))
		(line (pt 0 24)(pt 12 24))
	)
	(port
		(pt 32 0)
		(input)
		(text "PRN" (rect 24 13 41 25)(font "Courier New" (bold)))
		(text "PRN" (rect 24 11 41 23)(font "Courier New" (bold)))
		(line (pt 32 4)(pt 32 0))
	)
	(port
		(pt 64 24)
		(output)
		(text "Q" (rect 45 20 50 32)(font "Courier New" (bold)))
		(text "Q" (rect 45 20 50 32)(font "Courier New" (bold)))
		(line (pt 52 24)(pt 64 24))
	)
	(drawing
		(line (pt 12 12)(pt 52 12))
		(line (pt 12 68)(pt 52 68))
		(line (pt 52 68)(pt 52 12))
		(line (pt 12 68)(pt 12 12))
		(line (pt 19 40)(pt 12 47))
		(line (pt 12 32)(pt 20 40))
		(circle (rect 28 4 36 12))
		(circle (rect 28 68 36 76))
	)
)
(symbol
	(rect 456 568 520 648)
	(text "DFF" (rect 1 0 19 10)(font "Arial" (font_size 6)))
	(text "inst3" (rect 3 68 26 80)(font "Arial" ))
	(port
		(pt 32 80)
		(input)
		(text "CLRN" (rect 21 59 44 71)(font "Courier New" (bold)))
		(text "CLRN" (rect 21 58 44 70)(font "Courier New" (bold)))
		(line (pt 32 80)(pt 32 76))
	)
	(port
		(pt 0 40)
		(input)
		(text "CLK" (rect 3 29 20 41)(font "Courier New" (bold))(invisible))
		(text "CLK" (rect 3 29 20 41)(font "Courier New" (bold))(invisible))
		(line (pt 0 40)(pt 12 40))
	)
	(port
		(pt 0 24)
		(input)
		(text "D" (rect 14 20 19 32)(font "Courier New" (bold)))
		(text "D" (rect 14 20 19 32)(font "Courier New" (bold)))
		(line (pt 0 24)(pt 12 24))
	)
	(port
		(pt 32 0)
		(input)
		(text "PRN" (rect 24 13 41 25)(font "Courier New" (bold)))
		(text "PRN" (rect 24 11 41 23)(font "Courier New" (bold)))
		(line (pt 32 4)(pt 32 0))
	)
	(port
		(pt 64 24)
		(output)
		(text "Q" (rect 45 20 50 32)(font "Courier New" (bold)))
		(text "Q" (rect 45 20 50 32)(font "Courier New" (bold)))
		(line (pt 52 24)(pt 64 24))
	)
	(drawing
		(line (pt 12 12)(pt 52 12))
		(line (pt 12 68)(pt 52 68))
		(line (pt 52 68)(pt 52 12))
		(line (pt 12 68)(pt 12 12))
		(line (pt 19 40)(pt 12 47))
		(line (pt 12 32)(pt 20 40))
		(circle (rect 28 4 36 12))
		(circle (rect 28 68 36 76))
	)
)
(symbol
	(rect 456 344 520 424)
	(text "DFF" (rect 1 0 19 10)(font "Arial" (font_size 6)))
	(text "inst4" (rect 3 68 26 80)(font "Arial" ))
	(port
		(pt 32 80)
		(input)
		(text "CLRN" (rect 21 59 44 71)(font "Courier New" (bold)))
		(text "CLRN" (rect 21 58 44 70)(font "Courier New" (bold)))
		(line (pt 32 80)(pt 32 76))
	)
	(port
		(pt 0 40)
		(input)
		(text "CLK" (rect 3 29 20 41)(font "Courier New" (bold))(invisible))
		(text "CLK" (rect 3 29 20 41)(font "Courier New" (bold))(invisible))
		(line (pt 0 40)(pt 12 40))
	)
	(port
		(pt 0 24)
		(input)
		(text "D" (rect 14 20 19 32)(font "Courier New" (bold)))
		(text "D" (rect 14 20 19 32)(font "Courier New" (bold)))
		(line (pt 0 24)(pt 12 24))
	)
	(port
		(pt 32 0)
		(input)
		(text "PRN" (rect 24 13 41 25)(font "Courier New" (bold)))
		(text "PRN" (rect 24 11 41 23)(font "Courier New" (bold)))
		(line (pt 32 4)(pt 32 0))
	)
	(port
		(pt 64 24)
		(output)
		(text "Q" (rect 45 20 50 32)(font "Courier New" (bold)))
		(text "Q" (rect 45 20 50 32)(font "Courier New" (bold)))
		(line (pt 52 24)(pt 64 24))
	)
	(drawing
		(line (pt 12 12)(pt 52 12))
		(line (pt 12 68)(pt 52 68))
		(line (pt 52 68)(pt 52 12))
		(line (pt 12 68)(pt 12 12))
		(line (pt 19 40)(pt 12 47))
		(line (pt 12 32)(pt 20 40))
		(circle (rect 28 4 36 12))
		(circle (rect 28 68 36 76))
	)
)
(symbol
	(rect 656 112 720 160)
	(text "AND2" (rect 1 0 25 10)(font "Arial" (font_size 6)))
	(text "inst5" (rect 3 37 26 49)(font "Arial" ))
	(port
		(pt 0 16)
		(input)
		(text "IN1" (rect 2 7 19 19)(font "Courier New" (bold))(invisible))
		(text "IN1" (rect 2 7 19 19)(font "Courier New" (bold))(invisible))
		(line (pt 0 16)(pt 14 16))
	)
	(port
		(pt 0 32)
		(input)
		(text "IN2" (rect 2 23 19 35)(font "Courier New" (bold))(invisible))
		(text "IN2" (rect 2 23 19 35)(font "Courier New" (bold))(invisible))
		(line (pt 0 32)(pt 14 32))
	)
	(port
		(pt 64 24)
		(output)
		(text "OUT" (rect 48 15 65 27)(font "Courier New" (bold))(invisible))
		(text "OUT" (rect 48 15 65 27)(font "Courier New" (bold))(invisible))
		(line (pt 42 24)(pt 64 24))
	)
	(drawing
		(line (pt 14 12)(pt 30 12))
		(line (pt 14 37)(pt 31 37))
		(line (pt 14 12)(pt 14 37))
		(arc (pt 31 37)(pt 30 12)(rect 18 12 43 37))
	)
)
(symbol
	(rect 656 224 720 272)
	(text "AND2" (rect 1 0 25 10)(font "Arial" (font_size 6)))
	(text "inst6" (rect 3 37 26 49)(font "Arial" ))
	(port
		(pt 0 16)
		(input)
		(text "IN1" (rect 2 7 19 19)(font "Courier New" (bold))(invisible))
		(text "IN1" (rect 2 7 19 19)(font "Courier New" (bold))(invisible))
		(line (pt 0 16)(pt 14 16))
	)
	(port
		(pt 0 32)
		(input)
		(text "IN2" (rect 2 23 19 35)(font "Courier New" (bold))(invisible))
		(text "IN2" (rect 2 23 19 35)(font "Courier New" (bold))(invisible))
		(line (pt 0 32)(pt 14 32))
	)
	(port
		(pt 64 24)
		(output)
		(text "OUT" (rect 48 15 65 27)(font "Courier New" (bold))(invisible))
		(text "OUT" (rect 48 15 65 27)(font "Courier New" (bold))(invisible))
		(line (pt 42 24)(pt 64 24))
	)
	(drawing
		(line (pt 14 12)(pt 30 12))
		(line (pt 14 37)(pt 31 37))
		(line (pt 14 12)(pt 14 37))
		(arc (pt 31 37)(pt 30 12)(rect 18 12 43 37))
	)
)
(symbol
	(rect 656 336 720 384)
	(text "AND2" (rect 1 0 25 10)(font "Arial" (font_size 6)))
	(text "inst7" (rect 3 37 26 49)(font "Arial" ))
	(port
		(pt 0 16)
		(input)
		(text "IN1" (rect 2 7 19 19)(font "Courier New" (bold))(invisible))
		(text "IN1" (rect 2 7 19 19)(font "Courier New" (bold))(invisible))
		(line (pt 0 16)(pt 14 16))
	)
	(port
		(pt 0 32)
		(input)
		(text "IN2" (rect 2 23 19 35)(font "Courier New" (bold))(invisible))
		(text "IN2" (rect 2 23 19 35)(font "Courier New" (bold))(invisible))
		(line (pt 0 32)(pt 14 32))
	)
	(port
		(pt 64 24)
		(output)
		(text "OUT" (rect 48 15 65 27)(font "Courier New" (bold))(invisible))
		(text "OUT" (rect 48 15 65 27)(font "Courier New" (bold))(invisible))
		(line (pt 42 24)(pt 64 24))
	)
	(drawing
		(line (pt 14 12)(pt 30 12))
		(line (pt 14 37)(pt 31 37))
		(line (pt 14 12)(pt 14 37))
		(arc (pt 31 37)(pt 30 12)(rect 18 12 43 37))
	)
)
(symbol
	(rect 656 448 720 496)
	(text "AND2" (rect 1 0 25 10)(font "Arial" (font_size 6)))
	(text "inst8" (rect 3 37 26 49)(font "Arial" ))
	(port
		(pt 0 16)
		(input)
		(text "IN1" (rect 2 7 19 19)(font "Courier New" (bold))(invisible))
		(text "IN1" (rect 2 7 19 19)(font "Courier New" (bold))(invisible))
		(line (pt 0 16)(pt 14 16))
	)
	(port
		(pt 0 32)
		(input)
		(text "IN2" (rect 2 23 19 35)(font "Courier New" (bold))(invisible))
		(text "IN2" (rect 2 23 19 35)(font "Courier New" (bold))(invisible))
		(line (pt 0 32)(pt 14 32))
	)
	(port
		(pt 64 24)
		(output)
		(text "OUT" (rect 48 15 65 27)(font "Courier New" (bold))(invisible))
		(text "OUT" (rect 48 15 65 27)(font "Courier New" (bold))(invisible))
		(line (pt 42 24)(pt 64 24))
	)
	(drawing
		(line (pt 14 12)(pt 30 12))
		(line (pt 14 37)(pt 31 37))
		(line (pt 14 12)(pt 14 37))
		(arc (pt 31 37)(pt 30 12)(rect 18 12 43 37))
	)
)
(symbol
	(rect 656 560 720 608)
	(text "AND2" (rect 1 0 25 10)(font "Arial" (font_size 6)))
	(text "inst9" (rect 3 37 26 49)(font "Arial" ))
	(port
		(pt 0 16)
		(input)
		(text "IN1" (rect 2 7 19 19)(font "Courier New" (bold))(invisible))
		(text "IN1" (rect 2 7 19 19)(font "Courier New" (bold))(invisible))
		(line (pt 0 16)(pt 14 16))
	)
	(port
		(pt 0 32)
		(input)
		(text "IN2" (rect 2 23 19 35)(font "Courier New" (bold))(invisible))
		(text "IN2" (rect 2 23 19 35)(font "Courier New" (bold))(invisible))
		(line (pt 0 32)(pt 14 32))
	)
	(port
		(pt 64 24)
		(output)
		(text "OUT" (rect 48 15 65 27)(font "Courier New" (bold))(invisible))
		(text "OUT" (rect 48 15 65 27)(font "Courier New" (bold))(invisible))
		(line (pt 42 24)(pt 64 24))
	)
	(drawing
		(line (pt 14 12)(pt 30 12))
		(line (pt 14 37)(pt 31 37))
		(line (pt 14 12)(pt 14 37))
		(arc (pt 31 37)(pt 30 12)(rect 18 12 43 37))
	)
)
(connector
	(pt 520 144)
	(pt 656 144)
)
(connector
	(pt 520 256)
	(pt 656 256)
)
(connector
	(pt 520 368)
	(pt 656 368)
)
(connector
	(pt 520 480)
	(pt 656 480)
)
(connector
	(pt 520 592)
	(pt 656 592)
)
(connector
	(pt 656 576)
	(pt 536 576)
)
(connector
	(pt 536 576)
	(pt 536 552)
)
(connector
	(pt 536 552)
	(pt 400 552)
)
(connector
	(pt 400 552)
	(pt 400 592)
)
(connector
	(pt 400 592)
	(pt 456 592)
)
(connector
	(pt 656 464)
	(pt 536 464)
)
(connector
	(pt 536 464)
	(pt 536 440)
)
(connector
	(pt 536 440)
	(pt 400 440)
)
(connector
	(pt 400 440)
	(pt 400 480)
)
(connector
	(pt 456 480)
	(pt 400 480)
)
(connector
	(pt 656 352)
	(pt 536 352)
)
(connector
	(pt 536 352)
	(pt 536 328)
)
(connector
	(pt 536 328)
	(pt 400 328)
)
(connector
	(pt 400 328)
	(pt 400 368)
)
(connector
	(pt 456 368)
	(pt 400 368)
)
(connector
	(pt 656 240)
	(pt 536 240)
)
(connector
	(pt 536 240)
	(pt 536 216)
)
(connector
	(pt 536 216)
	(pt 400 216)
)
(connector
	(pt 400 216)
	(pt 400 256)
)
(connector
	(pt 456 256)
	(pt 400 256)
)
(connector
	(pt 656 128)
	(pt 536 128)
)
(connector
	(pt 536 128)
	(pt 536 104)
)
(connector
	(pt 536 104)
	(pt 400 104)
)
(connector
	(pt 400 104)
	(pt 400 144)
)
(connector
	(pt 456 144)
	(pt 400 144)
)
(connector
	(text "incmd[0]" (rect 354 128 396 140)(font "Arial" ))
	(pt 400 144)
	(pt 336 144)
)
(connector
	(text "incmd[1]" (rect 347 240 389 252)(font "Arial" ))
	(pt 400 256)
	(pt 336 256)
)
(connector
	(text "incmd[2]" (rect 343 352 385 364)(font "Arial" ))
	(pt 400 368)
	(pt 336 368)
)
(connector
	(text "incmd[3]" (rect 352 464 394 476)(font "Arial" ))
	(pt 400 480)
	(pt 336 480)
)
(connector
	(text "incmd[4]" (rect 351 576 393 588)(font "Arial" ))
	(pt 336 592)
	(pt 400 592)
)
(connector
	(text "outcmd[0]" (rect 799 120 848 132)(font "Arial" ))
	(pt 720 136)
	(pt 832 136)
)
(connector
	(text "outcmd[1]" (rect 803 232 852 244)(font "Arial" ))
	(pt 720 248)
	(pt 832 248)
)
(connector
	(text "outcmd[2]" (rect 803 344 852 356)(font "Arial" ))
	(pt 720 360)
	(pt 832 360)
)
(connector
	(text "outcmd[3]" (rect 814 456 863 468)(font "Arial" ))
	(pt 720 472)
	(pt 832 472)
)
(connector
	(text "outcmd[4]" (rect 814 568 863 580)(font "Arial" ))
	(pt 720 584)
	(pt 832 584)
)
(connector
	(text "clk" (rect 409 144 423 156)(font "Arial" ))
	(pt 456 160)
	(pt 392 160)
)
(connector
	(text "clk" (rect 409 256 423 268)(font "Arial" ))
	(pt 456 272)
	(pt 392 272)
)
(connector
	(text "clk" (rect 409 368 423 380)(font "Arial" ))
	(pt 456 384)
	(pt 392 384)
)
(connector
	(text "clk" (rect 409 480 423 492)(font "Arial" ))
	(pt 456 496)
	(pt 392 496)
)
(connector
	(text "clk" (rect 409 592 423 604)(font "Arial" ))
	(pt 456 608)
	(pt 392 608)
)
(junction (pt 400 592))
(junction (pt 400 480))
(junction (pt 400 368))
(junction (pt 400 256))
(junction (pt 400 144))
