:020000020000FC
:200000000000000000000000000000000000000000000000000000000000000000000000E0
:20000800DEFFED04DFC00015D8400215D8800315D8C00415D9000515D9400615D98007156A
:20001000D9C00815000B307ADA000915DA400A15DA800B15DAC00C15DB000D15DB400E15C4
:20001800DB800F15DBC01015D9401115EBFFFF04DBC012150009313A2880004C10000326FA
:200020002000022696020EC000000306DF401215E8BFFF17003DA03AD9401117DF40121766
:20002800DFC000172801707AD8400217D8800317D8C00417D9000517D9400617D9800717F7
:20003000D9C00817DA000917DA400A17DA800B17DAC00C17DB000D17DB400E17DB800F17CA
:20003800DBC01017DEC01304EF80083ADEFFF904DFC00615DF000515DF0005040005313A9B
:20004000E0BFFF15E0BFFF17E0BFFE15E0BFFE17E0BFFB15E03FFD1500800044E0BFFC157E
:20004800E0FFFB17E0BFFC171884703A1005003A1000101E00C2487418C96904E0BFFD17A3
:200050001080022410C9883A00C2487418C96904E0BFFD171080022410C5883A10800104DE
:2000580020C0001711000017E17FFD17183EE83A00000706E0BFFC171085883AE0BFFC15B7
:20006000E0BFFD1710800044E0BFFD15003FE4060005313AE0BFFE15E0BFFE17E0BFFF1596
:20006800E0BFFF17E0BFFB15E0BFFB171005003A1000011E003FD706DFC00617DF00051712
:20007000DEC00704F800283A0000000000000000000000000000000000000000000000006D
:20007800000000000000000000000000000000000000000000000000000000000000000068
:20008000000000000000000000000000000000000000000000000000000000000000000060
:20008800000000000000000000000000000000000000000000000000000000000000000058
:20009000000000000000000000000000000000000000000000000000000000000000000050
:20009800000000000000000000000000000000000000000000000000000000000000000048
:2000A000000000000000000000000000000000000000000000000000000000000000000040
:2000A800000000000000000000000000000000000000000000000000000000000000000038
:2000B000000000000000000000000000000000000000000000000000000000000000000030
:2000B800000000000000000000000000000000000000000000000000000000000000000028
:2000C000000000000000000000000000000000000000000000000000000000000000000020
:2000C800000000000000000000000000000000000000000000000000000000000000000018
:2000D000000000000000000000000000000000000000000000000000000000000000000010
:2000D800000000000000000000000000000000000000000000000000000000000000000008
:2000E000000000000000000000000000000000000000000000000000000000000000000000
:2000E8000000000000000000000000000000000000000000000000000000000000000000F8
:2000F0000000000000000000000000000000000000000000000000000000000000000000F0
:2000F8000000000000000000000000000000000000000000000000000000000000000000E8
:200100000000000000000000000000000000000000000000000000000000000000000000DF
:200108000000000000000000000000000000000000000000000000000000000000000000D7
:200110000000000000000000000000000000000000000000000000000000000000000000CF
:200118000000000000000000000000000000000000000000000000000000000000000000C7
:200120000000000000000000000000000000000000000000000000000000000000000000BF
:200128000000000000000000000000000000000000000000000000000000000000000000B7
:200130000000000000000000000000000000000000000000000000000000000000000000AF
:200138000000000000000000000000000000000000000000000000000000000000000000A7
:2001400000000000000000000000000000000000000000000000000000000000000000009F
:20014800000000000000000000000000000000000000000000000000000000000000000097
:2001500000000000000000000000000000000000000000000000000000000000000000008F
:20015800000000000000000000000000000000000000000000000000000000000000000087
:2001600000000000000000000000000000000000000000000000000000000000000000007F
:20016800000000000000000000000000000000000000000000000000000000000000000077
:2001700000000000000000000000000000000000000000000000000000000000000000006F
:20017800000000000000000000000000000000000000000000000000000000000000000067
:2001800000000000000000000000000000000000000000000000000000000000000000005F
:20018800000000000000000000000000000000000000000000000000000000000000000057
:2001900000000000000000000000000000000000000000000000000000000000000000004F
:20019800000000000000000000000000000000000000000000000000000000000000000047
:2001A00000000000000000000000000000000000000000000000000000000000000000003F
:2001A800000000000000000000000000000000000000000000000000000000000000000037
:2001B00000000000000000000000000000000000000000000000000000000000000000002F
:2001B800000000000000000000000000000000000000000000000000000000000000000027
:2001C00000000000000000000000000000000000000000000000000000000000000000001F
:2001C800000000000000000000000000000000000000000000000000000000000000000017
:2001D00000000000000000000000000000000000000000000000000000000000000000000F
:2001D800000000000000000000000000000000000000000000000000000000000000000007
:2001E0000000000000000000000000000000000000000000000000000000000000000000FF
:2001E8000000000000000000000000000000000000000000000000000000000000000000F7
:2001F0000000000000000000000000000000000000000000000000000000000000000000EF
:2001F8000000000000000000000000000000000000000000000000000000000000000000E7
:200200000000000000000000000000000000000000000000000000000000000000000000DE
:200208000000000000000000000000000000000000000000000000000000000000000000D6
:200210000000000000000000000000000000000000000000000000000000000000000000CE
:200218000000000000000000000000000000000000000000000000000000000000000000C6
:200220000000000000000000000000000000000000000000000000000000000000000000BE
:200228000000000000000000000000000000000000000000000000000000000000000000B6
:200230000000000000000000000000000000000000000000000000000000000000000000AE
:200238000000000000000000000000000000000000000000000000000000000000000000A6
:2002400000000000000000000000000000000000000000000000000000000000000000009E
:20024800000000000000000000000000000000000000000000000000000000000000000096
:2002500000000000000000000000000000000000000000000000000000000000000000008E
:20025800000000000000000000000000000000000000000000000000000000000000000086
:2002600000000000000000000000000000000000000000000000000000000000000000007E
:20026800000000000000000000000000000000000000000000000000000000000000000076
:2002700000000000000000000000000000000000000000000000000000000000000000006E
:20027800000000000000000000000000000000000000000000000000000000000000000066
:2002800000000000000000000000000000000000000000000000000000000000000000005E
:20028800000000000000000000000000000000000000000000000000000000000000000056
:2002900000000000000000000000000000000000000000000000000000000000000000004E
:20029800000000000000000000000000000000000000000000000000000000000000000046
:2002A00000000000000000000000000000000000000000000000000000000000000000003E
:2002A800000000000000000000000000000000000000000000000000000000000000000036
:2002B00000000000000000000000000000000000000000000000000000000000000000002E
:2002B800000000000000000000000000000000000000000000000000000000000000000026
:2002C00000000000000000000000000000000000000000000000000000000000000000001E
:2002C800000000000000000000000000000000000000000000000000000000000000000016
:2002D00000000000000000000000000000000000000000000000000000000000000000000E
:2002D800000000000000000000000000000000000000000000000000000000000000000006
:2002E0000000000000000000000000000000000000000000000000000000000000000000FE
:2002E8000000000000000000000000000000000000000000000000000000000000000000F6
:2002F0000000000000000000000000000000000000000000000000000000000000000000EE
:2002F8000000000000000000000000000000000000000000000000000000000000000000E6
:200300000000000000000000000000000000000000000000000000000000000000000000DD
:200308000000000000000000000000000000000000000000000000000000000000000000D5
:200310000000000000000000000000000000000000000000000000000000000000000000CD
:200318000000000000000000000000000000000000000000000000000000000000000000C5
:200320000000000000000000000000000000000000000000000000000000000000000000BD
:200328000000000000000000000000000000000000000000000000000000000000000000B5
:200330000000000000000000000000000000000000000000000000000000000000000000AD
:200338000000000000000000000000000000000000000000000000000000000000000000A5
:2003400000000000000000000000000000000000000000000000000000000000000000009D
:20034800000000000000000000000000000000000000000000000000000000000000000095
:2003500000000000000000000000000000000000000000000000000000000000000000008D
:20035800000000000000000000000000000000000000000000000000000000000000000085
:2003600000000000000000000000000000000000000000000000000000000000000000007D
:20036800000000000000000000000000000000000000000000000000000000000000000075
:2003700000000000000000000000000000000000000000000000000000000000000000006D
:20037800000000000000000000000000000000000000000000000000000000000000000065
:2003800000000000000000000000000000000000000000000000000000000000000000005D
:20038800000000000000000000000000000000000000000000000000000000000000000055
:2003900000000000000000000000000000000000000000000000000000000000000000004D
:20039800000000000000000000000000000000000000000000000000000000000000000045
:2003A00000000000000000000000000000000000000000000000000000000000000000003D
:2003A800000000000000000000000000000000000000000000000000000000000000000035
:2003B00000000000000000000000000000000000000000000000000000000000000000002D
:2003B800000000000000000000000000000000000000000000000000000000000000000025
:2003C00000000000000000000000000000000000000000000000000000000000000000001D
:2003C800000000000000000000000000000000000000000000000000000000000000000015
:2003D00000000000000000000000000000000000000000000000000000000000000000000D
:2003D800000000000000000000000000000000000000000000000000000000000000000005
:2003E0000000000000000000000000000000000000000000000000000000000000000000FD
:2003E8000000000000000000000000000000000000000000000000000000000000000000F5
:2003F0000000000000000000000000000000000000000000000000000000000000000000ED
:2003F8000000000000000000000000000000000000000000000000000000000000000000E5
:200400000000000000000000000000000000000000000000000000000000000000000000DC
:200408000000000000000000000000000000000000000000000000000000000000000000D4
:200410000000000000000000000000000000000000000000000000000000000000000000CC
:200418000000000000000000000000000000000000000000000000000000000000000000C4
:200420000000000000000000000000000000000000000000000000000000000000000000BC
:200428000000000000000000000000000000000000000000000000000000000000000000B4
:200430000000000000000000000000000000000000000000000000000000000000000000AC
:200438000000000000000000000000000000000000000000000000000000000000000000A4
:2004400000000000000000000000000000000000000000000000000000000000000000009C
:20044800000000000000000000000000000000000000000000000000000000000000000094
:2004500000000000000000000000000000000000000000000000000000000000000000008C
:20045800000000000000000000000000000000000000000000000000000000000000000084
:2004600000000000000000000000000000000000000000000000000000000000000000007C
:20046800000000000000000000000000000000000000000000000000000000000000000074
:2004700000000000000000000000000000000000000000000000000000000000000000006C
:20047800000000000000000000000000000000000000000000000000000000000000000064
:2004800000000000000000000000000000000000000000000000000000000000000000005C
:20048800000000000000000000000000000000000000000000000000000000000000000054
:2004900000000000000000000000000000000000000000000000000000000000000000004C
:20049800000000000000000000000000000000000000000000000000000000000000000044
:2004A00000000000000000000000000000000000000000000000000000000000000000003C
:2004A800000000000000000000000000000000000000000000000000000000000000000034
:2004B00000000000000000000000000000000000000000000000000000000000000000002C
:2004B800000000000000000000000000000000000000000000000000000000000000000024
:2004C00000000000000000000000000000000000000000000000000000000000000000001C
:2004C800000000000000000000000000000000000000000000000000000000000000000014
:2004D00000000000000000000000000000000000000000000000000000000000000000000C
:2004D800000000000000000000000000000000000000000000000000000000000000000004
:2004E0000000000000000000000000000000000000000000000000000000000000000000FC
:2004E8000000000000000000000000000000000000000000000000000000000000000000F4
:2004F0000000000000000000000000000000000000000000000000000000000000000000EC
:2004F8000000000000000000000000000000000000000000000000000000000000000000E4
:200500000000000000000000000000000000000000000000000000000000000000000000DB
:200508000000000000000000000000000000000000000000000000000000000000000000D3
:200510000000000000000000000000000000000000000000000000000000000000000000CB
:200518000000000000000000000000000000000000000000000000000000000000000000C3
:200520000000000000000000000000000000000000000000000000000000000000000000BB
:200528000000000000000000000000000000000000000000000000000000000000000000B3
:200530000000000000000000000000000000000000000000000000000000000000000000AB
:200538000000000000000000000000000000000000000000000000000000000000000000A3
:2005400000000000000000000000000000000000000000000000000000000000000000009B
:20054800000000000000000000000000000000000000000000000000000000000000000093
:2005500000000000000000000000000000000000000000000000000000000000000000008B
:20055800000000000000000000000000000000000000000000000000000000000000000083
:2005600000000000000000000000000000000000000000000000000000000000000000007B
:20056800000000000000000000000000000000000000000000000000000000000000000073
:2005700000000000000000000000000000000000000000000000000000000000000000006B
:20057800000000000000000000000000000000000000000000000000000000000000000063
:2005800000000000000000000000000000000000000000000000000000000000000000005B
:20058800000000000000000000000000000000000000000000000000000000000000000053
:2005900000000000000000000000000000000000000000000000000000000000000000004B
:20059800000000000000000000000000000000000000000000000000000000000000000043
:2005A00000000000000000000000000000000000000000000000000000000000000000003B
:2005A800000000000000000000000000000000000000000000000000000000000000000033
:2005B00000000000000000000000000000000000000000000000000000000000000000002B
:2005B800000000000000000000000000000000000000000000000000000000000000000023
:2005C00000000000000000000000000000000000000000000000000000000000000000001B
:2005C800000000000000000000000000000000000000000000000000000000000000000013
:2005D00000000000000000000000000000000000000000000000000000000000000000000B
:2005D800000000000000000000000000000000000000000000000000000000000000000003
:2005E0000000000000000000000000000000000000000000000000000000000000000000FB
:2005E8000000000000000000000000000000000000000000000000000000000000000000F3
:2005F0000000000000000000000000000000000000000000000000000000000000000000EB
:2005F8000000000000000000000000000000000000000000000000000000000000000000E3
:200600000000000000000000000000000000000000000000000000000000000000000000DA
:200608000000000000000000000000000000000000000000000000000000000000000000D2
:200610000000000000000000000000000000000000000000000000000000000000000000CA
:200618000000000000000000000000000000000000000000000000000000000000000000C2
:200620000000000000000000000000000000000000000000000000000000000000000000BA
:200628000000000000000000000000000000000000000000000000000000000000000000B2
:200630000000000000000000000000000000000000000000000000000000000000000000AA
:200638000000000000000000000000000000000000000000000000000000000000000000A2
:2006400000000000000000000000000000000000000000000000000000000000000000009A
:20064800000000000000000000000000000000000000000000000000000000000000000092
:2006500000000000000000000000000000000000000000000000000000000000000000008A
:20065800000000000000000000000000000000000000000000000000000000000000000082
:2006600000000000000000000000000000000000000000000000000000000000000000007A
:20066800000000000000000000000000000000000000000000000000000000000000000072
:2006700000000000000000000000000000000000000000000000000000000000000000006A
:20067800000000000000000000000000000000000000000000000000000000000000000062
:2006800000000000000000000000000000000000000000000000000000000000000000005A
:20068800000000000000000000000000000000000000000000000000000000000000000052
:2006900000000000000000000000000000000000000000000000000000000000000000004A
:20069800000000000000000000000000000000000000000000000000000000000000000042
:2006A00000000000000000000000000000000000000000000000000000000000000000003A
:2006A800000000000000000000000000000000000000000000000000000000000000000032
:2006B00000000000000000000000000000000000000000000000000000000000000000002A
:2006B800000000000000000000000000000000000000000000000000000000000000000022
:2006C00000000000000000000000000000000000000000000000000000000000000000001A
:2006C800000000000000000000000000000000000000000000000000000000000000000012
:2006D00000000000000000000000000000000000000000000000000000000000000000000A
:2006D800000000000000000000000000000000000000000000000000000000000000000002
:2006E0000000000000000000000000000000000000000000000000000000000000000000FA
:2006E8000000000000000000000000000000000000000000000000000000000000000000F2
:2006F0000000000000000000000000000000000000000000000000000000000000000000EA
:2006F8000000000000000000000000000000000000000000000000000000000000000000E2
:200700000000000000000000000000000000000000000000000000000000000000000000D9
:200708000000000000000000000000000000000000000000000000000000000000000000D1
:200710000000000000000000000000000000000000000000000000000000000000000000C9
:200718000000000000000000000000000000000000000000000000000000000000000000C1
:200720000000000000000000000000000000000000000000000000000000000000000000B9
:200728000000000000000000000000000000000000000000000000000000000000000000B1
:200730000000000000000000000000000000000000000000000000000000000000000000A9
:200738000000000000000000000000000000000000000000000000000000000000000000A1
:20074000000000000000000000000000000000000000000000000000000000000000000099
:20074800000000000000000000000000000000000000000000000000000000000000000091
:20075000000000000000000000000000000000000000000000000000000000000000000089
:20075800000000000000000000000000000000000000000000000000000000000000000081
:20076000000000000000000000000000000000000000000000000000000000000000000079
:20076800000000000000000000000000000000000000000000000000000000000000000071
:20077000000000000000000000000000000000000000000000000000000000000000000069
:20077800000000000000000000000000000000000000000000000000000000000000000061
:20078000000000000000000000000000000000000000000000000000000000000000000059
:20078800000000000000000000000000000000000000000000000000000000000000000051
:20079000000000000000000000000000000000000000000000000000000000000000000049
:20079800000000000000000000000000000000000000000000000000000000000000000041
:2007A000000000000000000000000000000000000000000000000000000000000000000039
:2007A800000000000000000000000000000000000000000000000000000000000000000031
:2007B000000000000000000000000000000000000000000000000000000000000000000029
:2007B800000000000000000000000000000000000000000000000000000000000000000021
:2007C000000000000000000000000000000000000000000000000000000000000000000019
:2007C800000000000000000000000000000000000000000000000000000000000000000011
:2007D000000000000000000000000000000000000000000000000000000000000000000009
:2007D800000000000000000000000000000000000000000000000000000000000000000001
:2007E0000000000000000000000000000000000000000000000000000000000000000000F9
:2007E8000000000000000000000000000000000000000000000000000000000000000000F1
:2007F0000000000000000000000000000000000000000000000000000000000000000000E9
:2007F8000000000000000000000000000000000000000000000000000000000000000000E1
:00000001FF
